logic_analyzer/.Xil/Vivado-30820-forever/hw_ila_data_1/zip_work/waveform.vcd
$date
        2025-Oct-31 00:31:52
$end
$version
        Vivado v2020.2 (64-bit)
$end
$timescale
        1ps
$end
$scope module dut $end
$var reg 8 " sample_data [7:0] $end
$var reg 1 * wr_en $end
$var reg 11 + wr_addr [10:0] $end
$var reg 8 6 wr_data [7:0] $end
$var reg 1 > capturing $end
$var reg 1 ? triggered $end
$var reg 1 @ capture_done $end
$var reg 11 A trigger_index [10:0] $end
$var reg 1 L trigger_enable_state $end
$var reg 2 M trigger_mode_sel [1:0] $end
$var reg 3 O config_channel_idx [2:0] $end
$var reg 1 R btn_trigger_pulse $end
$var reg 1 S btn_channel_pulse $end
$var reg 1 T btn_type_pulse $end
$var reg 1 U btn_mode_pulse $end
$var reg 8 V curr_trig_cfg_ext [7:0] $end
$var reg 1 ^ p_0_in $end
$var reg 2 _ sw_test_pattern_IBUF [1:0] $end
$var reg 1 a _TRIGGER $end
$var reg 1 b _WINDOW $end
$var reg 1 c _GAP $end
$upscope $end
$enddefinitions $end
#0
$dumpvars
b11111001 "
0*
b0 +
b1100 6
0>
0?
0@
b0 A
0L
b0 M
b11 O
0R
0S
0T
0U
b101 V
1^
b0 _
0a
1b
0c
$end
#1
b11111010 "
#2
b11111011 "
#3
b11111100 "
#4
b11111101 "
#5
b11111110 "
#6
b11111111 "
#7
b0 "
#8
b1 "
#9
b10 "
#10
b11 "
#11
b100 "
#12
b101 "
#13
b110 "
#14
b111 "
#15
b1000 "
#16
b1001 "
#17
b1010 "
#18
b1011 "
#19
b1100 "
#20
b1101 "
#21
b1110 "
#22
b1111 "
#23
b10000 "
#24
b10001 "
#25
b10010 "
#26
b10011 "
#27
b10100 "
#28
b10101 "
#29
b10110 "
#30
b10111 "
#31
b11000 "
#32
b11001 "
#33
b11010 "
#34
b11011 "
#35
b11100 "
#36
b11101 "
#37
b11110 "
#38
b11111 "
#39
b100000 "
#40
b100001 "
#41
b100010 "
#42
b100011 "
#43
b100100 "
#44
b100101 "
#45
b100110 "
#46
b100111 "
#47
b101000 "
#48
b101001 "
#49
b101010 "
#50
b101011 "
#51
b101100 "
#52
b101101 "
#53
b101110 "
#54
b101111 "
#55
b110000 "
#56
b110001 "
#57
b110010 "
#58
b110011 "
#59
b110100 "
#60
b110101 "
#61
b110110 "
#62
b110111 "
#63
b111000 "
#64
b111001 "
#65
b111010 "
#66
b111011 "
#67
b111100 "
#68
b111101 "
#69
b111110 "
#70
b111111 "
#71
b1000000 "
#72
b1000001 "
#73
b1000010 "
#74
b1000011 "
#75
b1000100 "
#76
b1000101 "
#77
b1000110 "
#78
b1000111 "
#79
b1001000 "
#80
b1001001 "
#81
b1001010 "
#82
b1001011 "
#83
b1001100 "
#84
b1001101 "
#85
b1001110 "
#86
b1001111 "
#87
b1010000 "
#88
b1010001 "
#89
b1010010 "
#90
b1010011 "
#91
b1010100 "
#92
b1010101 "
#93
b1010110 "
#94
b1010111 "
#95
b1011000 "
#96
b1011001 "
#97
b1011010 "
#98
b1011011 "
#99
b1011100 "
#100
b1011101 "
#101
b1011110 "
#102
b1011111 "
#103
b1100000 "
#104
b1100001 "
#105
b1100010 "
#106
b1100011 "
#107
b1100100 "
#108
b1100101 "
#109
b1100110 "
#110
b1100111 "
#111
b1101000 "
#112
b1101001 "
#113
b1101010 "
#114
b1101011 "
#115
b1101100 "
#116
b1101101 "
#117
b1101110 "
#118
b1101111 "
#119
b1110000 "
#120
b1110001 "
#121
b1110010 "
#122
b1110011 "
#123
b1110100 "
#124
b1110101 "
#125
b1110110 "
#126
b1110111 "
#127
b1111000 "
#128
b1111001 "
#129
b1111010 "
#130
b1111011 "
#131
b1111100 "
#132
b1111101 "
#133
b1111110 "
#134
b1111111 "
#135
b10000000 "
#136
b10000001 "
#137
b10000010 "
#138
b10000011 "
#139
b10000100 "
#140
b10000101 "
#141
b10000110 "
#142
b10000111 "
#143
b10001000 "
#144
b10001001 "
#145
b10001010 "
#146
b10001011 "
#147
b10001100 "
#148
b10001101 "
#149
b10001110 "
#150
b10001111 "
#151
b10010000 "
#152
b10010001 "
#153
b10010010 "
#154
b10010011 "
#155
b10010100 "
#156
b10010101 "
#157
b10010110 "
#158
b10010111 "
#159
b10011000 "
#160
b10011001 "
#161
b10011010 "
#162
b10011011 "
#163
b10011100 "
#164
b10011101 "
#165
b10011110 "
#166
b10011111 "
#167
b10100000 "
#168
b10100001 "
#169
b10100010 "
#170
b10100011 "
#171
b10100100 "
#172
b10100101 "
#173
b10100110 "
#174
b10100111 "
#175
b10101000 "
#176
b10101001 "
#177
b10101010 "
#178
b10101011 "
#179
b10101100 "
#180
b10101101 "
#181
b10101110 "
#182
b10101111 "
#183
b10110000 "
#184
b10110001 "
#185
b10110010 "
#186
b10110011 "
#187
b10110100 "
#188
b10110101 "
#189
b10110110 "
#190
b10110111 "
#191
b10111000 "
#192
b10111001 "
#193
b10111010 "
#194
b10111011 "
#195
b10111100 "
#196
b10111101 "
#197
b10111110 "
#198
b10111111 "
#199
b11000000 "
#200
b11000001 "
#201
b11000010 "
#202
b11000011 "
#203
b11000100 "
#204
b11000101 "
#205
b11000110 "
#206
b11000111 "
#207
b11001000 "
#208
b11001001 "
#209
b11001010 "
#210
b11001011 "
#211
b11001100 "
#212
b11001101 "
#213
b11001110 "
#214
b11001111 "
#215
b11010000 "
#216
b11010001 "
#217
b11010010 "
#218
b11010011 "
#219
b11010100 "
#220
b11010101 "
#221
b11010110 "
#222
b11010111 "
#223
b11011000 "
#224
b11011001 "
#225
b11011010 "
#226
b11011011 "
#227
b11011100 "
#228
b11011101 "
#229
b11011110 "
#230
b11011111 "
#231
b11100000 "
#232
b11100001 "
#233
b11100010 "
#234
b11100011 "
#235
b11100100 "
#236
b11100101 "
#237
b11100110 "
#238
b11100111 "
#239
b11101000 "
#240
b11101001 "
#241
b11101010 "
#242
b11101011 "
#243
b11101100 "
#244
b11101101 "
#245
b11101110 "
#246
b11101111 "
#247
b11110000 "
#248
b11110001 "
#249
b11110010 "
#250
b11110011 "
#251
b11110100 "
#252
b11110101 "
#253
b11110110 "
#254
b11110111 "
#255
b11111000 "
#256
b11111001 "
#257
b11111010 "
#258
b11111011 "
#259
b11111100 "
#260
b11111101 "
#261
b11111110 "
#262
b11111111 "
#263
b0 "
#264
b1 "
#265
b10 "
#266
b11 "
#267
b100 "
#268
b101 "
#269
b110 "
#270
b111 "
#271
b1000 "
#272
b1001 "
#273
b1010 "
#274
b1011 "
#275
b1100 "
#276
b1101 "
#277
b1110 "
#278
b1111 "
#279
b10000 "
#280
b10001 "
#281
b10010 "
#282
b10011 "
#283
b10100 "
#284
b10101 "
#285
b10110 "
#286
b10111 "
#287
b11000 "
#288
b11001 "
#289
b11010 "
#290
b11011 "
#291
b11100 "
#292
b11101 "
#293
b11110 "
#294
b11111 "
#295
b100000 "
#296
b100001 "
#297
b100010 "
#298
b100011 "
#299
b100100 "
#300
b100101 "
#301
b100110 "
#302
b100111 "
#303
b101000 "
#304
b101001 "
#305
b101010 "
#306
b101011 "
#307
b101100 "
#308
b101101 "
#309
b101110 "
#310
b101111 "
#311
b110000 "
#312
b110001 "
#313
b110010 "
#314
b110011 "
#315
b110100 "
#316
b110101 "
#317
b110110 "
#318
b110111 "
#319
b111000 "
#320
b111001 "
#321
b111010 "
#322
b111011 "
#323
b111100 "
#324
b111101 "
#325
b111110 "
#326
b111111 "
#327
b1000000 "
#328
b1000001 "
#329
b1000010 "
#330
b1000011 "
#331
b1000100 "
#332
b1000101 "
#333
b1000110 "
#334
b1000111 "
#335
b1001000 "
#336
b1001001 "
#337
b1001010 "
#338
b1001011 "
#339
b1001100 "
#340
b1001101 "
#341
b1001110 "
#342
b1001111 "
#343
b1010000 "
#344
b1010001 "
#345
b1010010 "
#346
b1010011 "
#347
b1010100 "
#348
b1010101 "
#349
b1010110 "
#350
b1010111 "
#351
b1011000 "
#352
b1011001 "
#353
b1011010 "
#354
b1011011 "
#355
b1011100 "
#356
b1011101 "
#357
b1011110 "
#358
b1011111 "
#359
b1100000 "
#360
b1100001 "
#361
b1100010 "
#362
b1100011 "
#363
b1100100 "
#364
b1100101 "
#365
b1100110 "
#366
b1100111 "
#367
b1101000 "
#368
b1101001 "
#369
b1101010 "
#370
b1101011 "
#371
b1101100 "
#372
b1101101 "
#373
b1101110 "
#374
b1101111 "
#375
b1110000 "
#376
b1110001 "
#377
b1110010 "
#378
b1110011 "
#379
b1110100 "
#380
b1110101 "
#381
b1110110 "
#382
b1110111 "
#383
b1111000 "
#384
b1111001 "
#385
b1111010 "
#386
b1111011 "
#387
b1111100 "
#388
b1111101 "
#389
b1111110 "
#390
b1111111 "
#391
b10000000 "
#392
b10000001 "
#393
b10000010 "
#394
b10000011 "
#395
b10000100 "
#396
b10000101 "
#397
b10000110 "
#398
b10000111 "
#399
b10001000 "
#400
b10001001 "
#401
b10001010 "
#402
b10001011 "
#403
b10001100 "
#404
b10001101 "
#405
b10001110 "
#406
b10001111 "
#407
b10010000 "
#408
b10010001 "
#409
b10010010 "
#410
b10010011 "
#411
b10010100 "
#412
b10010101 "
#413
b10010110 "
#414
b10010111 "
#415
b10011000 "
#416
b10011001 "
#417
b10011010 "
#418
b10011011 "
#419
b10011100 "
#420
b10011101 "
#421
b10011110 "
#422
b10011111 "
#423
b10100000 "
#424
b10100001 "
#425
b10100010 "
#426
b10100011 "
#427
b10100100 "
#428
b10100101 "
#429
b10100110 "
#430
b10100111 "
#431
b10101000 "
#432
b10101001 "
#433
b10101010 "
#434
b10101011 "
#435
b10101100 "
#436
b10101101 "
#437
b10101110 "
#438
b10101111 "
#439
b10110000 "
#440
b10110001 "
#441
b10110010 "
#442
b10110011 "
#443
b10110100 "
#444
b10110101 "
#445
b10110110 "
#446
b10110111 "
#447
b10111000 "
#448
b10111001 "
#449
b10111010 "
#450
b10111011 "
#451
b10111100 "
#452
b10111101 "
#453
b10111110 "
#454
b10111111 "
#455
b11000000 "
#456
b11000001 "
#457
b11000010 "
#458
b11000011 "
#459
b11000100 "
#460
b11000101 "
#461
b11000110 "
#462
b11000111 "
#463
b11001000 "
#464
b11001001 "
#465
b11001010 "
#466
b11001011 "
#467
b11001100 "
#468
b11001101 "
#469
b11001110 "
#470
b11001111 "
#471
b11010000 "
#472
b11010001 "
#473
b11010010 "
#474
b11010011 "
#475
b11010100 "
#476
b11010101 "
#477
b11010110 "
#478
b11010111 "
#479
b11011000 "
#480
b11011001 "
#481
b11011010 "
#482
b11011011 "
#483
b11011100 "
#484
b11011101 "
#485
b11011110 "
#486
b11011111 "
#487
b11100000 "
#488
b11100001 "
#489
b11100010 "
#490
b11100011 "
#491
b11100100 "
#492
b11100101 "
#493
b11100110 "
#494
b11100111 "
#495
b11101000 "
#496
b11101001 "
#497
b11101010 "
#498
b11101011 "
#499
b11101100 "
#500
b11101101 "
#501
b11101110 "
#502
b11101111 "
#503
b11110000 "
#504
b11110001 "
#505
b11110010 "
#506
b11110011 "
#507
b11110100 "
#508
b11110101 "
#509
b11110110 "
#510
b11110111 "
#511
b11111000 "
#512
b11111001 "
#513
b11111010 "
#514
b11111011 "
#515
b11111100 "
#516
b11111101 "
#517
b11111110 "
#518
b11111111 "
#519
b0 "
#520
b1 "
#521
b10 "
#522
b11 "
#523
b100 "
#524
b101 "
#525
b110 "
#526
b111 "
#527
b1000 "
#528
b1001 "
#529
b1010 "
#530
b1011 "
#531
b1100 "
#532
b1101 "
#533
b1110 "
#534
b1111 "
#535
b10000 "
#536
b10001 "
#537
b10010 "
#538
b10011 "
#539
b10100 "
#540
b10101 "
#541
b10110 "
#542
b10111 "
#543
b11000 "
#544
b11001 "
#545
b11010 "
#546
b11011 "
#547
b11100 "
#548
b11101 "
#549
b11110 "
#550
b11111 "
#551
b100000 "
#552
b100001 "
#553
b100010 "
#554
b100011 "
#555
b100100 "
#556
b100101 "
#557
b100110 "
#558
b100111 "
#559
b101000 "
#560
b101001 "
#561
b101010 "
#562
b101011 "
#563
b101100 "
#564
b101101 "
#565
b101110 "
#566
b101111 "
#567
b110000 "
#568
b110001 "
#569
b110010 "
#570
b110011 "
#571
b110100 "
#572
b110101 "
#573
b110110 "
#574
b110111 "
#575
b111000 "
#576
b111001 "
#577
b111010 "
#578
b111011 "
#579
b111100 "
#580
b111101 "
#581
b111110 "
#582
b111111 "
#583
b1000000 "
#584
b1000001 "
#585
b1000010 "
#586
b1000011 "
#587
b1000100 "
#588
b1000101 "
#589
b1000110 "
#590
b1000111 "
#591
b1001000 "
#592
b1001001 "
#593
b1001010 "
#594
b1001011 "
#595
b1001100 "
#596
b1001101 "
#597
b1001110 "
#598
b1001111 "
#599
b1010000 "
#600
b1010001 "
#601
b1010010 "
#602
b1010011 "
#603
b1010100 "
#604
b1010101 "
#605
b1010110 "
#606
b1010111 "
#607
b1011000 "
#608
b1011001 "
#609
b1011010 "
#610
b1011011 "
#611
b1011100 "
#612
b1011101 "
#613
b1011110 "
#614
b1011111 "
#615
b1100000 "
#616
b1100001 "
#617
b1100010 "
#618
b1100011 "
#619
b1100100 "
#620
b1100101 "
#621
b1100110 "
#622
b1100111 "
#623
b1101000 "
#624
b1101001 "
#625
b1101010 "
#626
b1101011 "
#627
b1101100 "
#628
b1101101 "
#629
b1101110 "
#630
b1101111 "
#631
b1110000 "
#632
b1110001 "
#633
b1110010 "
#634
b1110011 "
#635
b1110100 "
#636
b1110101 "
#637
b1110110 "
#638
b1110111 "
#639
b1111000 "
#640
b1111001 "
#641
b1111010 "
#642
b1111011 "
#643
b1111100 "
#644
b1111101 "
#645
b1111110 "
#646
b1111111 "
#647
b10000000 "
#648
b10000001 "
#649
b10000010 "
#650
b10000011 "
#651
b10000100 "
#652
b10000101 "
#653
b10000110 "
#654
b10000111 "
#655
b10001000 "
#656
b10001001 "
#657
b10001010 "
#658
b10001011 "
#659
b10001100 "
#660
b10001101 "
#661
b10001110 "
#662
b10001111 "
#663
b10010000 "
#664
b10010001 "
#665
b10010010 "
#666
b10010011 "
#667
b10010100 "
#668
b10010101 "
#669
b10010110 "
#670
b10010111 "
#671
b10011000 "
#672
b10011001 "
#673
b10011010 "
#674
b10011011 "
#675
b10011100 "
#676
b10011101 "
#677
b10011110 "
#678
b10011111 "
#679
b10100000 "
#680
b10100001 "
#681
b10100010 "
#682
b10100011 "
#683
b10100100 "
#684
b10100101 "
#685
b10100110 "
#686
b10100111 "
#687
b10101000 "
#688
b10101001 "
#689
b10101010 "
#690
b10101011 "
#691
b10101100 "
#692
b10101101 "
#693
b10101110 "
#694
b10101111 "
#695
b10110000 "
#696
b10110001 "
#697
b10110010 "
#698
b10110011 "
#699
b10110100 "
#700
b10110101 "
#701
b10110110 "
#702
b10110111 "
#703
b10111000 "
#704
b10111001 "
#705
b10111010 "
#706
b10111011 "
#707
b10111100 "
#708
b10111101 "
#709
b10111110 "
#710
b10111111 "
#711
b11000000 "
#712
b11000001 "
#713
b11000010 "
#714
b11000011 "
#715
b11000100 "
#716
b11000101 "
#717
b11000110 "
#718
b11000111 "
#719
b11001000 "
#720
b11001001 "
#721
b11001010 "
#722
b11001011 "
#723
b11001100 "
#724
b11001101 "
#725
b11001110 "
#726
b11001111 "
#727
b11010000 "
#728
b11010001 "
#729
b11010010 "
#730
b11010011 "
#731
b11010100 "
#732
b11010101 "
#733
b11010110 "
#734
b11010111 "
#735
b11011000 "
#736
b11011001 "
#737
b11011010 "
#738
b11011011 "
#739
b11011100 "
#740
b11011101 "
#741
b11011110 "
#742
b11011111 "
#743
b11100000 "
#744
b11100001 "
#745
b11100010 "
#746
b11100011 "
#747
b11100100 "
#748
b11100101 "
#749
b11100110 "
#750
b11100111 "
#751
b11101000 "
#752
b11101001 "
#753
b11101010 "
#754
b11101011 "
#755
b11101100 "
#756
b11101101 "
#757
b11101110 "
#758
b11101111 "
#759
b11110000 "
#760
b11110001 "
#761
b11110010 "
#762
b11110011 "
#763
b11110100 "
#764
b11110101 "
#765
b11110110 "
#766
b11110111 "
#767
b11111000 "
#768
b11111001 "
#769
b11111010 "
#770
b11111011 "
#771
b11111100 "
#772
b11111101 "
#773
b11111110 "
#774
b11111111 "
#775
b0 "
#776
b1 "
#777
b10 "
#778
b11 "
#779
b100 "
#780
b101 "
#781
b110 "
#782
b111 "
#783
b1000 "
#784
b1001 "
#785
b1010 "
#786
b1011 "
#787
b1100 "
#788
b1101 "
#789
b1110 "
#790
b1111 "
#791
b10000 "
#792
b10001 "
#793
b10010 "
#794
b10011 "
#795
b10100 "
#796
b10101 "
#797
b10110 "
#798
b10111 "
#799
b11000 "
#800
b11001 "
#801
b11010 "
#802
b11011 "
#803
b11100 "
#804
b11101 "
#805
b11110 "
#806
b11111 "
#807
b100000 "
#808
b100001 "
#809
b100010 "
#810
b100011 "
#811
b100100 "
#812
b100101 "
#813
b100110 "
#814
b100111 "
#815
b101000 "
#816
b101001 "
#817
b101010 "
#818
b101011 "
#819
b101100 "
#820
b101101 "
#821
b101110 "
#822
b101111 "
#823
b110000 "
#824
b110001 "
#825
b110010 "
#826
b110011 "
#827
b110100 "
#828
b110101 "
#829
b110110 "
#830
b110111 "
#831
b111000 "
#832
b111001 "
#833
b111010 "
#834
b111011 "
#835
b111100 "
#836
b111101 "
#837
b111110 "
#838
b111111 "
#839
b1000000 "
#840
b1000001 "
#841
b1000010 "
#842
b1000011 "
#843
b1000100 "
#844
b1000101 "
#845
b1000110 "
#846
b1000111 "
#847
b1001000 "
#848
b1001001 "
#849
b1001010 "
#850
b1001011 "
#851
b1001100 "
#852
b1001101 "
#853
b1001110 "
#854
b1001111 "
#855
b1010000 "
#856
b1010001 "
#857
b1010010 "
#858
b1010011 "
#859
b1010100 "
#860
b1010101 "
#861
b1010110 "
#862
b1010111 "
#863
b1011000 "
#864
b1011001 "
#865
b1011010 "
#866
b1011011 "
#867
b1011100 "
#868
b1011101 "
#869
b1011110 "
#870
b1011111 "
#871
b1100000 "
#872
b1100001 "
#873
b1100010 "
#874
b1100011 "
#875
b1100100 "
#876
b1100101 "
#877
b1100110 "
#878
b1100111 "
#879
b1101000 "
#880
b1101001 "
#881
b1101010 "
#882
b1101011 "
#883
b1101100 "
#884
b1101101 "
#885
b1101110 "
#886
b1101111 "
#887
b1110000 "
#888
b1110001 "
#889
b1110010 "
#890
b1110011 "
#891
b1110100 "
#892
b1110101 "
#893
b1110110 "
#894
b1110111 "
#895
b1111000 "
#896
b1111001 "
#897
b1111010 "
#898
b1111011 "
#899
b1111100 "
#900
b1111101 "
#901
b1111110 "
#902
b1111111 "
#903
b10000000 "
#904
b10000001 "
#905
b10000010 "
#906
b10000011 "
#907
b10000100 "
#908
b10000101 "
#909
b10000110 "
#910
b10000111 "
#911
b10001000 "
#912
b10001001 "
#913
b10001010 "
#914
b10001011 "
#915
b10001100 "
#916
b10001101 "
#917
b10001110 "
#918
b10001111 "
#919
b10010000 "
#920
b10010001 "
#921
b10010010 "
#922
b10010011 "
#923
b10010100 "
#924
b10010101 "
#925
b10010110 "
#926
b10010111 "
#927
b10011000 "
#928
b10011001 "
#929
b10011010 "
#930
b10011011 "
#931
b10011100 "
#932
b10011101 "
#933
b10011110 "
#934
b10011111 "
#935
b10100000 "
#936
b10100001 "
#937
b10100010 "
#938
b10100011 "
#939
b10100100 "
#940
b10100101 "
#941
b10100110 "
#942
b10100111 "
#943
b10101000 "
#944
b10101001 "
#945
b10101010 "
#946
b10101011 "
#947
b10101100 "
#948
b10101101 "
#949
b10101110 "
#950
b10101111 "
#951
b10110000 "
#952
b10110001 "
#953
b10110010 "
#954
b10110011 "
#955
b10110100 "
#956
b10110101 "
#957
b10110110 "
#958
b10110111 "
#959
b10111000 "
#960
b10111001 "
#961
b10111010 "
#962
b10111011 "
#963
b10111100 "
#964
b10111101 "
#965
b10111110 "
#966
b10111111 "
#967
b11000000 "
#968
b11000001 "
#969
b11000010 "
#970
b11000011 "
#971
b11000100 "
#972
b11000101 "
#973
b11000110 "
#974
b11000111 "
#975
b11001000 "
#976
b11001001 "
#977
b11001010 "
#978
b11001011 "
#979
b11001100 "
#980
b11001101 "
#981
b11001110 "
#982
b11001111 "
#983
b11010000 "
#984
b11010001 "
#985
b11010010 "
#986
b11010011 "
#987
b11010100 "
#988
b11010101 "
#989
b11010110 "
#990
b11010111 "
#991
b11011000 "
#992
b11011001 "
#993
b11011010 "
#994
b11011011 "
#995
b11011100 "
#996
b11011101 "
#997
b11011110 "
#998
b11011111 "
#999
b11100000 "
#1000
b11100001 "
#1001
b11100010 "
#1002
b11100011 "
#1003
b11100100 "
#1004
b11100101 "
#1005
b11100110 "
#1006
b11100111 "
#1007
b11101000 "
#1008
b11101001 "
#1009
b11101010 "
#1010
b11101011 "
#1011
b11101100 "
#1012
b11101101 "
#1013
b11101110 "
#1014
b11101111 "
#1015
b11110000 "
#1016
b11110001 "
#1017
b11110010 "
#1018
b11110011 "
#1019
b11110100 "
#1020
b11110101 "
1R
#1021
b11110110 "
1L
0R
#1022
b11110111 "
1>
#1023
b11111000 "
1*
b1 +
b11110111 6
#1024
b11111001 "
b10 +
b11111000 6
1?
b1 A
1a
#1025
b11111010 "
b11 +
b11111001 6
#1026
b11111011 "
b100 +
b11111010 6
#1027
b11111100 "
b101 +
b11111011 6
#1028
b11111101 "
b110 +
b11111100 6
#1029
b11111110 "
b111 +
b11111101 6
#1030
b11111111 "
b1000 +
b11111110 6
#1031
b0 "
b1001 +
b11111111 6
#1032
b1 "
b1010 +
b0 6
#1033
b10 "
b1011 +
b1 6
#1034
b11 "
b1100 +
b10 6
#1035
b100 "
b1101 +
b11 6
#1036
b101 "
b1110 +
b100 6
#1037
b110 "
b1111 +
b101 6
#1038
b111 "
b10000 +
b110 6
#1039
b1000 "
b10001 +
b111 6
#1040
b1001 "
b10010 +
b1000 6
#1041
b1010 "
b10011 +
b1001 6
#1042
b1011 "
b10100 +
b1010 6
#1043
b1100 "
b10101 +
b1011 6
#1044
b1101 "
b10110 +
b1100 6
#1045
b1110 "
b10111 +
b1101 6
#1046
b1111 "
b11000 +
b1110 6
#1047
b10000 "
b11001 +
b1111 6
#1048
b10001 "
b11010 +
b10000 6
#1049
b10010 "
b11011 +
b10001 6
#1050
b10011 "
b11100 +
b10010 6
#1051
b10100 "
b11101 +
b10011 6
#1052
b10101 "
b11110 +
b10100 6
#1053
b10110 "
b11111 +
b10101 6
#1054
b10111 "
b100000 +
b10110 6
#1055
b11000 "
b100001 +
b10111 6
#1056
b11001 "
b100010 +
b11000 6
#1057
b11010 "
b100011 +
b11001 6
#1058
b11011 "
b100100 +
b11010 6
#1059
b11100 "
b100101 +
b11011 6
#1060
b11101 "
b100110 +
b11100 6
#1061
b11110 "
b100111 +
b11101 6
#1062
b11111 "
b101000 +
b11110 6
#1063
b100000 "
b101001 +
b11111 6
#1064
b100001 "
b101010 +
b100000 6
#1065
b100010 "
b101011 +
b100001 6
#1066
b100011 "
b101100 +
b100010 6
#1067
b100100 "
b101101 +
b100011 6
#1068
b100101 "
b101110 +
b100100 6
#1069
b100110 "
b101111 +
b100101 6
#1070
b100111 "
b110000 +
b100110 6
#1071
b101000 "
b110001 +
b100111 6
#1072
b101001 "
b110010 +
b101000 6
#1073
b101010 "
b110011 +
b101001 6
#1074
b101011 "
b110100 +
b101010 6
#1075
b101100 "
b110101 +
b101011 6
#1076
b101101 "
b110110 +
b101100 6
#1077
b101110 "
b110111 +
b101101 6
#1078
b101111 "
b111000 +
b101110 6
#1079
b110000 "
b111001 +
b101111 6
#1080
b110001 "
b111010 +
b110000 6
#1081
b110010 "
b111011 +
b110001 6
#1082
b110011 "
b111100 +
b110010 6
#1083
b110100 "
b111101 +
b110011 6
#1084
b110101 "
b111110 +
b110100 6
#1085
b110110 "
b111111 +
b110101 6
#1086
b110111 "
b1000000 +
b110110 6
#1087
b111000 "
b1000001 +
b110111 6
#1088
b111001 "
b1000010 +
b111000 6
#1089
b111010 "
b1000011 +
b111001 6
#1090
b111011 "
b1000100 +
b111010 6
#1091
b111100 "
b1000101 +
b111011 6
#1092
b111101 "
b1000110 +
b111100 6
#1093
b111110 "
b1000111 +
b111101 6
#1094
b111111 "
b1001000 +
b111110 6
#1095
b1000000 "
b1001001 +
b111111 6
#1096
b1000001 "
b1001010 +
b1000000 6
#1097
b1000010 "
b1001011 +
b1000001 6
#1098
b1000011 "
b1001100 +
b1000010 6
#1099
b1000100 "
b1001101 +
b1000011 6
#1100
b1000101 "
b1001110 +
b1000100 6
#1101
b1000110 "
b1001111 +
b1000101 6
#1102
b1000111 "
b1010000 +
b1000110 6
#1103
b1001000 "
b1010001 +
b1000111 6
#1104
b1001001 "
b1010010 +
b1001000 6
#1105
b1001010 "
b1010011 +
b1001001 6
#1106
b1001011 "
b1010100 +
b1001010 6
#1107
b1001100 "
b1010101 +
b1001011 6
#1108
b1001101 "
b1010110 +
b1001100 6
#1109
b1001110 "
b1010111 +
b1001101 6
#1110
b1001111 "
b1011000 +
b1001110 6
#1111
b1010000 "
b1011001 +
b1001111 6
#1112
b1010001 "
b1011010 +
b1010000 6
#1113
b1010010 "
b1011011 +
b1010001 6
#1114
b1010011 "
b1011100 +
b1010010 6
#1115
b1010100 "
b1011101 +
b1010011 6
#1116
b1010101 "
b1011110 +
b1010100 6
#1117
b1010110 "
b1011111 +
b1010101 6
#1118
b1010111 "
b1100000 +
b1010110 6
#1119
b1011000 "
b1100001 +
b1010111 6
#1120
b1011001 "
b1100010 +
b1011000 6
#1121
b1011010 "
b1100011 +
b1011001 6
#1122
b1011011 "
b1100100 +
b1011010 6
#1123
b1011100 "
b1100101 +
b1011011 6
#1124
b1011101 "
b1100110 +
b1011100 6
#1125
b1011110 "
b1100111 +
b1011101 6
#1126
b1011111 "
b1101000 +
b1011110 6
#1127
b1100000 "
b1101001 +
b1011111 6
#1128
b1100001 "
b1101010 +
b1100000 6
#1129
b1100010 "
b1101011 +
b1100001 6
#1130
b1100011 "
b1101100 +
b1100010 6
#1131
b1100100 "
b1101101 +
b1100011 6
#1132
b1100101 "
b1101110 +
b1100100 6
#1133
b1100110 "
b1101111 +
b1100101 6
#1134
b1100111 "
b1110000 +
b1100110 6
#1135
b1101000 "
b1110001 +
b1100111 6
#1136
b1101001 "
b1110010 +
b1101000 6
#1137
b1101010 "
b1110011 +
b1101001 6
#1138
b1101011 "
b1110100 +
b1101010 6
#1139
b1101100 "
b1110101 +
b1101011 6
#1140
b1101101 "
b1110110 +
b1101100 6
#1141
b1101110 "
b1110111 +
b1101101 6
#1142
b1101111 "
b1111000 +
b1101110 6
#1143
b1110000 "
b1111001 +
b1101111 6
#1144
b1110001 "
b1111010 +
b1110000 6
#1145
b1110010 "
b1111011 +
b1110001 6
#1146
b1110011 "
b1111100 +
b1110010 6
#1147
b1110100 "
b1111101 +
b1110011 6
#1148
b1110101 "
b1111110 +
b1110100 6
#1149
b1110110 "
b1111111 +
b1110101 6
#1150
b1110111 "
b10000000 +
b1110110 6
#1151
b1111000 "
b10000001 +
b1110111 6
#1152
b1111001 "
b10000010 +
b1111000 6
#1153
b1111010 "
b10000011 +
b1111001 6
#1154
b1111011 "
b10000100 +
b1111010 6
#1155
b1111100 "
b10000101 +
b1111011 6
#1156
b1111101 "
b10000110 +
b1111100 6
#1157
b1111110 "
b10000111 +
b1111101 6
#1158
b1111111 "
b10001000 +
b1111110 6
#1159
b10000000 "
b10001001 +
b1111111 6
#1160
b10000001 "
b10001010 +
b10000000 6
#1161
b10000010 "
b10001011 +
b10000001 6
#1162
b10000011 "
b10001100 +
b10000010 6
#1163
b10000100 "
b10001101 +
b10000011 6
#1164
b10000101 "
b10001110 +
b10000100 6
#1165
b10000110 "
b10001111 +
b10000101 6
#1166
b10000111 "
b10010000 +
b10000110 6
#1167
b10001000 "
b10010001 +
b10000111 6
#1168
b10001001 "
b10010010 +
b10001000 6
#1169
b10001010 "
b10010011 +
b10001001 6
#1170
b10001011 "
b10010100 +
b10001010 6
#1171
b10001100 "
b10010101 +
b10001011 6
#1172
b10001101 "
b10010110 +
b10001100 6
#1173
b10001110 "
b10010111 +
b10001101 6
#1174
b10001111 "
b10011000 +
b10001110 6
#1175
b10010000 "
b10011001 +
b10001111 6
#1176
b10010001 "
b10011010 +
b10010000 6
#1177
b10010010 "
b10011011 +
b10010001 6
#1178
b10010011 "
b10011100 +
b10010010 6
#1179
b10010100 "
b10011101 +
b10010011 6
#1180
b10010101 "
b10011110 +
b10010100 6
#1181
b10010110 "
b10011111 +
b10010101 6
#1182
b10010111 "
b10100000 +
b10010110 6
#1183
b10011000 "
b10100001 +
b10010111 6
#1184
b10011001 "
b10100010 +
b10011000 6
#1185
b10011010 "
b10100011 +
b10011001 6
#1186
b10011011 "
b10100100 +
b10011010 6
#1187
b10011100 "
b10100101 +
b10011011 6
#1188
b10011101 "
b10100110 +
b10011100 6
#1189
b10011110 "
b10100111 +
b10011101 6
#1190
b10011111 "
b10101000 +
b10011110 6
#1191
b10100000 "
b10101001 +
b10011111 6
#1192
b10100001 "
b10101010 +
b10100000 6
#1193
b10100010 "
b10101011 +
b10100001 6
#1194
b10100011 "
b10101100 +
b10100010 6
#1195
b10100100 "
b10101101 +
b10100011 6
#1196
b10100101 "
b10101110 +
b10100100 6
#1197
b10100110 "
b10101111 +
b10100101 6
#1198
b10100111 "
b10110000 +
b10100110 6
#1199
b10101000 "
b10110001 +
b10100111 6
#1200
b10101001 "
b10110010 +
b10101000 6
#1201
b10101010 "
b10110011 +
b10101001 6
#1202
b10101011 "
b10110100 +
b10101010 6
#1203
b10101100 "
b10110101 +
b10101011 6
#1204
b10101101 "
b10110110 +
b10101100 6
#1205
b10101110 "
b10110111 +
b10101101 6
