logic_analyzer/.Xil/Vivado-27008-forever/hw_ila_data_1/zip_work/waveform.vcd
$date
        2025-Nov-06 00:52:14
$end
$version
        Vivado v2020.2 (64-bit)
$end
$timescale
        1ps
$end
$scope module dut $end
$var reg 8 " sample_data [7:0] $end
$var reg 1 * wr_en $end
$var reg 11 + wr_addr [10:0] $end
$var reg 8 6 wr_data [7:0] $end
$var reg 1 > capturing $end
$var reg 1 ? triggered $end
$var reg 1 @ capture_done $end
$var reg 11 A trigger_index [10:0] $end
$var reg 1 L trigger_enable_state $end
$var reg 2 M trigger_mode_sel [1:0] $end
$var reg 3 O config_channel_idx [2:0] $end
$var reg 1 R btn_trigger_pulse $end
$var reg 1 S btn_channel_pulse $end
$var reg 1 T btn_type_pulse $end
$var reg 1 U btn_mode_pulse $end
$var reg 8 V curr_trig_cfg_ext [7:0] $end
$var reg 1 ^ p_1_in $end
$var reg 2 _ p_0_in [1:0] $end
$var reg 8 a tx_data [7:0] $end
$var reg 1 i tx_valid $end
$var reg 1 j tx_ready $end
$var reg 1 k busy $end
$var reg 11 l rd_addr [10:0] $end
$var reg 3 w state [2:0] $end
$var reg 1 z uart_tx_OBUF $end
$var reg 8 { rd_data [7:0] $end
$var reg 1 %" _TRIGGER $end
$var reg 1 &" _WINDOW $end
$var reg 1 '" _GAP $end
$upscope $end
$enddefinitions $end
#0
$dumpvars
b10010100 "
0*
b1001001111 +
b10110111 6
0>
1?
1@
b11001001110 A
1L
b0 M
b0 O
0R
0S
0T
0U
b1 V
1^
b0 _
b1100100 a
0i
0j
1k
b11111111110 l
b11 w
0z
b1100110 {
0%"
1&"
0'"
$end
#1
b10010101 "
#2
b10010110 "
#3
b10010111 "
#4
b10011000 "
#5
b10011001 "
#6
b10011010 "
#7
b10011011 "
#8
b10011100 "
#9
b10011101 "
#10
b10011110 "
#11
b10011111 "
#12
b10100000 "
#13
b10100001 "
#14
b10100010 "
#15
b10100011 "
#16
b10100100 "
#17
b10100101 "
#18
b10100110 "
#19
b10100111 "
#20
b10101000 "
#21
b10101001 "
#22
b10101010 "
#23
b10101011 "
#24
b10101100 "
#25
b10101101 "
#26
b10101110 "
#27
b10101111 "
#28
b10110000 "
#29
b10110001 "
#30
b10110010 "
#31
b10110011 "
#32
b10110100 "
#33
b10110101 "
#34
b10110110 "
#35
b10110111 "
#36
b10111000 "
#37
b10111001 "
#38
b10111010 "
#39
b10111011 "
#40
b10111100 "
#41
b10111101 "
#42
b10111110 "
#43
b10111111 "
#44
b11000000 "
#45
b11000001 "
#46
b11000010 "
#47
b11000011 "
#48
b11000100 "
#49
b11000101 "
#50
b11000110 "
#51
b11000111 "
#52
b11001000 "
#53
b11001001 "
#54
b11001010 "
#55
b11001011 "
#56
b11001100 "
#57
b11001101 "
#58
b11001110 "
#59
b11001111 "
#60
b11010000 "
#61
b11010001 "
#62
b11010010 "
#63
b11010011 "
#64
b11010100 "
#65
b11010101 "
#66
b11010110 "
#67
b11010111 "
#68
b11011000 "
#69
b11011001 "
#70
b11011010 "
#71
b11011011 "
#72
b11011100 "
#73
b11011101 "
#74
b11011110 "
#75
b11011111 "
#76
b11100000 "
#77
b11100001 "
#78
b11100010 "
#79
b11100011 "
#80
b11100100 "
#81
b11100101 "
#82
b11100110 "
#83
b11100111 "
#84
b11101000 "
#85
b11101001 "
#86
b11101010 "
#87
b11101011 "
#88
b11101100 "
#89
b11101101 "
#90
b11101110 "
#91
b11101111 "
#92
b11110000 "
#93
b11110001 "
#94
b11110010 "
#95
b11110011 "
#96
b11110100 "
#97
b11110101 "
#98
b11110110 "
#99
b11110111 "
#100
b11111000 "
#101
b11111001 "
#102
b11111010 "
#103
b11111011 "
#104
b11111100 "
#105
b11111101 "
#106
b11111110 "
#107
b11111111 "
#108
b0 "
#109
b1 "
#110
b10 "
#111
b11 "
#112
b100 "
#113
b101 "
#114
b110 "
#115
b111 "
#116
b1000 "
#117
b1001 "
#118
b1010 "
#119
b1011 "
#120
b1100 "
#121
b1101 "
#122
b1110 "
#123
b1111 "
#124
b10000 "
#125
b10001 "
#126
b10010 "
#127
b10011 "
#128
b10100 "
#129
b10101 "
#130
b10110 "
#131
b10111 "
#132
b11000 "
#133
b11001 "
#134
b11010 "
#135
b11011 "
#136
b11100 "
#137
b11101 "
#138
b11110 "
#139
b11111 "
#140
b100000 "
#141
b100001 "
#142
b100010 "
#143
b100011 "
#144
b100100 "
#145
b100101 "
#146
b100110 "
#147
b100111 "
#148
b101000 "
#149
b101001 "
#150
b101010 "
#151
b101011 "
#152
b101100 "
#153
b101101 "
#154
b101110 "
#155
b101111 "
#156
b110000 "
#157
b110001 "
#158
b110010 "
#159
b110011 "
#160
b110100 "
#161
b110101 "
#162
b110110 "
#163
b110111 "
#164
b111000 "
#165
b111001 "
#166
b111010 "
#167
b111011 "
#168
b111100 "
#169
b111101 "
#170
b111110 "
#171
b111111 "
#172
b1000000 "
#173
b1000001 "
#174
b1000010 "
#175
b1000011 "
#176
b1000100 "
#177
b1000101 "
#178
b1000110 "
#179
b1000111 "
#180
b1001000 "
#181
b1001001 "
#182
b1001010 "
#183
b1001011 "
#184
b1001100 "
#185
b1001101 "
#186
b1001110 "
#187
b1001111 "
#188
b1010000 "
#189
b1010001 "
#190
b1010010 "
#191
b1010011 "
#192
b1010100 "
#193
b1010101 "
#194
b1010110 "
#195
b1010111 "
#196
b1011000 "
#197
b1011001 "
#198
b1011010 "
#199
b1011011 "
#200
b1011100 "
#201
b1011101 "
#202
b1011110 "
#203
b1011111 "
#204
b1100000 "
#205
b1100001 "
#206
b1100010 "
#207
b1100011 "
#208
b1100100 "
#209
b1100101 "
#210
b1100110 "
#211
b1100111 "
#212
b1101000 "
#213
b1101001 "
#214
b1101010 "
#215
b1101011 "
#216
b1101100 "
#217
b1101101 "
#218
b1101110 "
#219
b1101111 "
#220
b1110000 "
#221
b1110001 "
#222
b1110010 "
#223
b1110011 "
#224
b1110100 "
#225
b1110101 "
#226
b1110110 "
#227
b1110111 "
#228
b1111000 "
#229
b1111001 "
#230
b1111010 "
#231
b1111011 "
#232
b1111100 "
#233
b1111101 "
#234
b1111110 "
#235
b1111111 "
#236
b10000000 "
#237
b10000001 "
#238
b10000010 "
#239
b10000011 "
#240
b10000100 "
#241
b10000101 "
#242
b10000110 "
#243
b10000111 "
#244
b10001000 "
#245
b10001001 "
#246
b10001010 "
#247
b10001011 "
#248
b10001100 "
#249
b10001101 "
#250
b10001110 "
#251
b10001111 "
#252
b10010000 "
#253
b10010001 "
#254
b10010010 "
#255
b10010011 "
#256
b10010100 "
#257
b10010101 "
#258
b10010110 "
#259
b10010111 "
#260
b10011000 "
#261
b10011001 "
#262
b10011010 "
#263
b10011011 "
#264
b10011100 "
#265
b10011101 "
#266
b10011110 "
#267
b10011111 "
#268
b10100000 "
#269
b10100001 "
#270
b10100010 "
#271
b10100011 "
#272
b10100100 "
#273
b10100101 "
#274
b10100110 "
#275
b10100111 "
#276
b10101000 "
#277
b10101001 "
#278
b10101010 "
#279
b10101011 "
#280
b10101100 "
#281
b10101101 "
#282
b10101110 "
#283
b10101111 "
#284
b10110000 "
#285
b10110001 "
#286
b10110010 "
#287
b10110011 "
#288
b10110100 "
#289
b10110101 "
#290
b10110110 "
#291
b10110111 "
#292
b10111000 "
#293
b10111001 "
#294
b10111010 "
#295
b10111011 "
#296
b10111100 "
#297
b10111101 "
#298
b10111110 "
#299
b10111111 "
#300
b11000000 "
#301
b11000001 "
#302
b11000010 "
#303
b11000011 "
#304
b11000100 "
#305
b11000101 "
#306
b11000110 "
#307
b11000111 "
1z
#308
b11001000 "
#309
b11001001 "
#310
b11001010 "
#311
b11001011 "
#312
b11001100 "
#313
b11001101 "
#314
b11001110 "
#315
b11001111 "
#316
b11010000 "
#317
b11010001 "
#318
b11010010 "
#319
b11010011 "
#320
b11010100 "
#321
b11010101 "
#322
b11010110 "
#323
b11010111 "
#324
b11011000 "
#325
b11011001 "
#326
b11011010 "
#327
b11011011 "
#328
b11011100 "
#329
b11011101 "
#330
b11011110 "
#331
b11011111 "
#332
b11100000 "
#333
b11100001 "
#334
b11100010 "
#335
b11100011 "
#336
b11100100 "
#337
b11100101 "
#338
b11100110 "
#339
b11100111 "
#340
b11101000 "
#341
b11101001 "
#342
b11101010 "
#343
b11101011 "
#344
b11101100 "
#345
b11101101 "
#346
b11101110 "
#347
b11101111 "
#348
b11110000 "
#349
b11110001 "
#350
b11110010 "
#351
b11110011 "
#352
b11110100 "
#353
b11110101 "
#354
b11110110 "
#355
b11110111 "
#356
b11111000 "
#357
b11111001 "
#358
b11111010 "
#359
b11111011 "
#360
b11111100 "
#361
b11111101 "
#362
b11111110 "
#363
b11111111 "
#364
b0 "
#365
b1 "
#366
b10 "
#367
b11 "
#368
b100 "
#369
b101 "
#370
b110 "
#371
b111 "
#372
b1000 "
#373
b1001 "
#374
b1010 "
#375
b1011 "
#376
b1100 "
#377
b1101 "
#378
b1110 "
#379
b1111 "
#380
b10000 "
#381
b10001 "
#382
b10010 "
#383
b10011 "
#384
b10100 "
#385
b10101 "
#386
b10110 "
#387
b10111 "
#388
b11000 "
#389
b11001 "
#390
b11010 "
#391
b11011 "
#392
b11100 "
#393
b11101 "
#394
b11110 "
#395
b11111 "
#396
b100000 "
#397
b100001 "
#398
b100010 "
#399
b100011 "
#400
b100100 "
#401
b100101 "
#402
b100110 "
#403
b100111 "
#404
b101000 "
#405
b101001 "
#406
b101010 "
#407
b101011 "
#408
b101100 "
#409
b101101 "
#410
b101110 "
#411
b101111 "
#412
b110000 "
#413
b110001 "
#414
b110010 "
#415
b110011 "
#416
b110100 "
#417
b110101 "
#418
b110110 "
#419
b110111 "
#420
b111000 "
#421
b111001 "
#422
b111010 "
#423
b111011 "
#424
b111100 "
#425
b111101 "
#426
b111110 "
#427
b111111 "
#428
b1000000 "
#429
b1000001 "
#430
b1000010 "
#431
b1000011 "
#432
b1000100 "
#433
b1000101 "
#434
b1000110 "
#435
b1000111 "
#436
b1001000 "
#437
b1001001 "
#438
b1001010 "
#439
b1001011 "
#440
b1001100 "
#441
b1001101 "
#442
b1001110 "
#443
b1001111 "
#444
b1010000 "
#445
b1010001 "
#446
b1010010 "
#447
b1010011 "
#448
b1010100 "
#449
b1010101 "
#450
b1010110 "
#451
b1010111 "
#452
b1011000 "
#453
b1011001 "
#454
b1011010 "
#455
b1011011 "
#456
b1011100 "
#457
b1011101 "
#458
b1011110 "
#459
b1011111 "
#460
b1100000 "
#461
b1100001 "
#462
b1100010 "
#463
b1100011 "
#464
b1100100 "
#465
b1100101 "
#466
b1100110 "
#467
b1100111 "
#468
b1101000 "
#469
b1101001 "
#470
b1101010 "
#471
b1101011 "
#472
b1101100 "
#473
b1101101 "
#474
b1101110 "
#475
b1101111 "
#476
b1110000 "
#477
b1110001 "
#478
b1110010 "
#479
b1110011 "
#480
b1110100 "
#481
b1110101 "
#482
b1110110 "
#483
b1110111 "
#484
b1111000 "
#485
b1111001 "
#486
b1111010 "
#487
b1111011 "
#488
b1111100 "
#489
b1111101 "
#490
b1111110 "
#491
b1111111 "
#492
b10000000 "
#493
b10000001 "
#494
b10000010 "
#495
b10000011 "
#496
b10000100 "
#497
b10000101 "
#498
b10000110 "
#499
b10000111 "
#500
b10001000 "
#501
b10001001 "
#502
b10001010 "
#503
b10001011 "
#504
b10001100 "
#505
b10001101 "
#506
b10001110 "
#507
b10001111 "
#508
b10010000 "
#509
b10010001 "
#510
b10010010 "
#511
b10010011 "
#512
b10010100 "
#513
b10010101 "
#514
b10010110 "
#515
b10010111 "
#516
b10011000 "
#517
b10011001 "
#518
b10011010 "
#519
b10011011 "
#520
b10011100 "
#521
b10011101 "
#522
b10011110 "
#523
b10011111 "
#524
b10100000 "
#525
b10100001 "
#526
b10100010 "
#527
b10100011 "
#528
b10100100 "
#529
b10100101 "
#530
b10100110 "
#531
b10100111 "
#532
b10101000 "
#533
b10101001 "
#534
b10101010 "
#535
b10101011 "
#536
b10101100 "
#537
b10101101 "
#538
b10101110 "
#539
b10101111 "
#540
b10110000 "
#541
b10110001 "
#542
b10110010 "
#543
b10110011 "
#544
b10110100 "
#545
b10110101 "
#546
b10110110 "
#547
b10110111 "
#548
b10111000 "
#549
b10111001 "
#550
b10111010 "
#551
b10111011 "
#552
b10111100 "
#553
b10111101 "
#554
b10111110 "
#555
b10111111 "
#556
b11000000 "
#557
b11000001 "
#558
b11000010 "
#559
b11000011 "
#560
b11000100 "
#561
b11000101 "
#562
b11000110 "
#563
b11000111 "
#564
b11001000 "
#565
b11001001 "
#566
b11001010 "
#567
b11001011 "
#568
b11001100 "
#569
b11001101 "
#570
b11001110 "
#571
b11001111 "
#572
b11010000 "
#573
b11010001 "
#574
b11010010 "
#575
b11010011 "
#576
b11010100 "
#577
b11010101 "
#578
b11010110 "
#579
b11010111 "
#580
b11011000 "
#581
b11011001 "
#582
b11011010 "
#583
b11011011 "
#584
b11011100 "
#585
b11011101 "
#586
b11011110 "
#587
b11011111 "
#588
b11100000 "
#589
b11100001 "
#590
b11100010 "
#591
b11100011 "
#592
b11100100 "
#593
b11100101 "
#594
b11100110 "
#595
b11100111 "
#596
b11101000 "
#597
b11101001 "
#598
b11101010 "
#599
b11101011 "
#600
b11101100 "
#601
b11101101 "
#602
b11101110 "
#603
b11101111 "
#604
b11110000 "
#605
b11110001 "
#606
b11110010 "
#607
b11110011 "
#608
b11110100 "
#609
b11110101 "
#610
b11110110 "
#611
b11110111 "
#612
b11111000 "
#613
b11111001 "
#614
b11111010 "
#615
b11111011 "
#616
b11111100 "
#617
b11111101 "
#618
b11111110 "
#619
b11111111 "
#620
b0 "
#621
b1 "
#622
b10 "
#623
b11 "
#624
b100 "
#625
b101 "
#626
b110 "
#627
b111 "
#628
b1000 "
#629
b1001 "
#630
b1010 "
#631
b1011 "
#632
b1100 "
#633
b1101 "
#634
b1110 "
#635
b1111 "
#636
b10000 "
#637
b10001 "
#638
b10010 "
#639
b10011 "
#640
b10100 "
#641
b10101 "
#642
b10110 "
#643
b10111 "
#644
b11000 "
#645
b11001 "
#646
b11010 "
#647
b11011 "
#648
b11100 "
#649
b11101 "
#650
b11110 "
#651
b11111 "
#652
b100000 "
#653
b100001 "
#654
b100010 "
#655
b100011 "
#656
b100100 "
#657
b100101 "
#658
b100110 "
#659
b100111 "
#660
b101000 "
#661
b101001 "
#662
b101010 "
#663
b101011 "
#664
b101100 "
#665
b101101 "
#666
b101110 "
#667
b101111 "
#668
b110000 "
#669
b110001 "
#670
b110010 "
#671
b110011 "
#672
b110100 "
#673
b110101 "
#674
b110110 "
#675
b110111 "
#676
b111000 "
#677
b111001 "
#678
b111010 "
#679
b111011 "
#680
b111100 "
#681
b111101 "
#682
b111110 "
#683
b111111 "
#684
b1000000 "
#685
b1000001 "
#686
b1000010 "
#687
b1000011 "
#688
b1000100 "
#689
b1000101 "
#690
b1000110 "
#691
b1000111 "
#692
b1001000 "
#693
b1001001 "
#694
b1001010 "
#695
b1001011 "
#696
b1001100 "
#697
b1001101 "
#698
b1001110 "
#699
b1001111 "
#700
b1010000 "
#701
b1010001 "
#702
b1010010 "
#703
b1010011 "
#704
b1010100 "
#705
b1010101 "
#706
b1010110 "
#707
b1010111 "
#708
b1011000 "
#709
b1011001 "
#710
b1011010 "
#711
b1011011 "
#712
b1011100 "
#713
b1011101 "
#714
b1011110 "
#715
b1011111 "
#716
b1100000 "
#717
b1100001 "
#718
b1100010 "
#719
b1100011 "
#720
b1100100 "
#721
b1100101 "
#722
b1100110 "
#723
b1100111 "
#724
b1101000 "
#725
b1101001 "
#726
b1101010 "
#727
b1101011 "
#728
b1101100 "
#729
b1101101 "
#730
b1101110 "
#731
b1101111 "
#732
b1110000 "
#733
b1110001 "
#734
b1110010 "
#735
b1110011 "
#736
b1110100 "
#737
b1110101 "
#738
b1110110 "
#739
b1110111 "
#740
b1111000 "
#741
b1111001 "
#742
b1111010 "
#743
b1111011 "
#744
b1111100 "
#745
b1111101 "
#746
b1111110 "
#747
b1111111 "
#748
b10000000 "
#749
b10000001 "
#750
b10000010 "
#751
b10000011 "
#752
b10000100 "
#753
b10000101 "
#754
b10000110 "
#755
b10000111 "
#756
b10001000 "
#757
b10001001 "
#758
b10001010 "
#759
b10001011 "
#760
b10001100 "
#761
b10001101 "
#762
b10001110 "
#763
b10001111 "
#764
b10010000 "
#765
b10010001 "
#766
b10010010 "
#767
b10010011 "
#768
b10010100 "
#769
b10010101 "
#770
b10010110 "
#771
b10010111 "
#772
b10011000 "
#773
b10011001 "
#774
b10011010 "
#775
b10011011 "
#776
b10011100 "
#777
b10011101 "
#778
b10011110 "
#779
b10011111 "
#780
b10100000 "
#781
b10100001 "
#782
b10100010 "
#783
b10100011 "
#784
b10100100 "
#785
b10100101 "
#786
b10100110 "
#787
b10100111 "
#788
b10101000 "
#789
b10101001 "
#790
b10101010 "
#791
b10101011 "
#792
b10101100 "
#793
b10101101 "
#794
b10101110 "
#795
b10101111 "
#796
b10110000 "
#797
b10110001 "
#798
b10110010 "
#799
b10110011 "
#800
b10110100 "
#801
b10110101 "
#802
b10110110 "
#803
b10110111 "
#804
b10111000 "
#805
b10111001 "
#806
b10111010 "
#807
b10111011 "
#808
b10111100 "
#809
b10111101 "
#810
b10111110 "
#811
b10111111 "
#812
b11000000 "
#813
b11000001 "
#814
b11000010 "
#815
b11000011 "
#816
b11000100 "
#817
b11000101 "
#818
b11000110 "
#819
b11000111 "
#820
b11001000 "
#821
b11001001 "
#822
b11001010 "
#823
b11001011 "
#824
b11001100 "
#825
b11001101 "
#826
b11001110 "
#827
b11001111 "
#828
b11010000 "
#829
b11010001 "
#830
b11010010 "
#831
b11010011 "
#832
b11010100 "
#833
b11010101 "
#834
b11010110 "
#835
b11010111 "
#836
b11011000 "
#837
b11011001 "
#838
b11011010 "
#839
b11011011 "
#840
b11011100 "
#841
b11011101 "
#842
b11011110 "
#843
b11011111 "
#844
b11100000 "
#845
b11100001 "
#846
b11100010 "
#847
b11100011 "
#848
b11100100 "
#849
b11100101 "
#850
b11100110 "
#851
b11100111 "
#852
b11101000 "
#853
b11101001 "
#854
b11101010 "
#855
b11101011 "
#856
b11101100 "
#857
b11101101 "
#858
b11101110 "
#859
b11101111 "
#860
b11110000 "
#861
b11110001 "
#862
b11110010 "
#863
b11110011 "
#864
b11110100 "
#865
b11110101 "
#866
b11110110 "
#867
b11110111 "
#868
b11111000 "
#869
b11111001 "
#870
b11111010 "
#871
b11111011 "
#872
b11111100 "
#873
b11111101 "
#874
b11111110 "
#875
b11111111 "
#876
b0 "
#877
b1 "
#878
b10 "
#879
b11 "
#880
b100 "
#881
b101 "
#882
b110 "
#883
b111 "
#884
b1000 "
#885
b1001 "
#886
b1010 "
#887
b1011 "
#888
b1100 "
#889
b1101 "
#890
b1110 "
#891
b1111 "
#892
b10000 "
#893
b10001 "
#894
b10010 "
#895
b10011 "
#896
b10100 "
#897
b10101 "
#898
b10110 "
#899
b10111 "
#900
b11000 "
#901
b11001 "
#902
b11010 "
#903
b11011 "
#904
b11100 "
#905
b11101 "
#906
b11110 "
#907
b11111 "
#908
b100000 "
#909
b100001 "
#910
b100010 "
#911
b100011 "
#912
b100100 "
#913
b100101 "
#914
b100110 "
#915
b100111 "
#916
b101000 "
#917
b101001 "
#918
b101010 "
#919
b101011 "
#920
b101100 "
#921
b101101 "
#922
b101110 "
#923
b101111 "
#924
b110000 "
#925
b110001 "
#926
b110010 "
#927
b110011 "
#928
b110100 "
#929
b110101 "
#930
b110110 "
#931
b110111 "
#932
b111000 "
#933
b111001 "
#934
b111010 "
#935
b111011 "
#936
b111100 "
#937
b111101 "
#938
b111110 "
#939
b111111 "
#940
b1000000 "
#941
b1000001 "
#942
b1000010 "
#943
b1000011 "
#944
b1000100 "
#945
b1000101 "
#946
b1000110 "
#947
b1000111 "
#948
b1001000 "
#949
b1001001 "
#950
b1001010 "
#951
b1001011 "
#952
b1001100 "
#953
b1001101 "
#954
b1001110 "
#955
b1001111 "
#956
b1010000 "
#957
b1010001 "
#958
b1010010 "
#959
b1010011 "
#960
b1010100 "
#961
b1010101 "
#962
b1010110 "
#963
b1010111 "
#964
b1011000 "
#965
b1011001 "
#966
b1011010 "
#967
b1011011 "
#968
b1011100 "
#969
b1011101 "
#970
b1011110 "
#971
b1011111 "
#972
b1100000 "
#973
b1100001 "
#974
b1100010 "
#975
b1100011 "
#976
b1100100 "
#977
b1100101 "
#978
b1100110 "
#979
b1100111 "
#980
b1101000 "
#981
b1101001 "
#982
b1101010 "
#983
b1101011 "
#984
b1101100 "
#985
b1101101 "
#986
b1101110 "
#987
b1101111 "
#988
b1110000 "
#989
b1110001 "
#990
b1110010 "
#991
b1110011 "
#992
b1110100 "
#993
b1110101 "
#994
b1110110 "
#995
b1110111 "
#996
b1111000 "
#997
b1111001 "
#998
b1111010 "
#999
b1111011 "
#1000
b1111100 "
#1001
b1111101 "
#1002
b1111110 "
#1003
b1111111 "
#1004
b10000000 "
#1005
b10000001 "
#1006
b10000010 "
#1007
b10000011 "
#1008
b10000100 "
#1009
b10000101 "
#1010
b10000110 "
#1011
b10000111 "
#1012
b10001000 "
#1013
b10001001 "
#1014
b10001010 "
#1015
b10001011 "
#1016
b10001100 "
#1017
b10001101 "
#1018
b10001110 "
#1019
b10001111 "
#1020
b10010000 "
#1021
b10010001 "
#1022
b10010010 "
#1023
b10010011 "
#1024
b10010100 "
#1025
b10010101 "
#1026
b10010110 "
#1027
b10010111 "
#1028
b10011000 "
#1029
b10011001 "
#1030
b10011010 "
#1031
b10011011 "
#1032
b10011100 "
#1033
b10011101 "
#1034
b10011110 "
#1035
b10011111 "
#1036
b10100000 "
#1037
b10100001 "
#1038
b10100010 "
#1039
b10100011 "
#1040
b10100100 "
#1041
b10100101 "
#1042
b10100110 "
#1043
b10100111 "
#1044
b10101000 "
#1045
b10101001 "
#1046
b10101010 "
#1047
b10101011 "
#1048
b10101100 "
#1049
b10101101 "
#1050
b10101110 "
#1051
b10101111 "
#1052
b10110000 "
#1053
b10110001 "
#1054
b10110010 "
#1055
b10110011 "
#1056
b10110100 "
#1057
b10110101 "
#1058
b10110110 "
#1059
b10110111 "
#1060
b10111000 "
#1061
b10111001 "
#1062
b10111010 "
#1063
b10111011 "
#1064
b10111100 "
#1065
b10111101 "
#1066
b10111110 "
#1067
b10111111 "
#1068
b11000000 "
#1069
b11000001 "
#1070
b11000010 "
#1071
b11000011 "
#1072
b11000100 "
#1073
b11000101 "
#1074
b11000110 "
#1075
b11000111 "
#1076
b11001000 "
#1077
b11001001 "
#1078
b11001010 "
#1079
b11001011 "
#1080
b11001100 "
#1081
b11001101 "
#1082
b11001110 "
#1083
b11001111 "
#1084
b11010000 "
#1085
b11010001 "
#1086
b11010010 "
#1087
b11010011 "
#1088
b11010100 "
#1089
b11010101 "
#1090
b11010110 "
#1091
b11010111 "
#1092
b11011000 "
#1093
b11011001 "
#1094
b11011010 "
#1095
b11011011 "
#1096
b11011100 "
#1097
b11011101 "
#1098
b11011110 "
#1099
b11011111 "
#1100
b11100000 "
#1101
b11100001 "
#1102
b11100010 "
#1103
b11100011 "
#1104
b11100100 "
#1105
b11100101 "
#1106
b11100110 "
#1107
b11100111 "
#1108
b11101000 "
#1109
b11101001 "
#1110
b11101010 "
#1111
b11101011 "
#1112
b11101100 "
#1113
b11101101 "
#1114
b11101110 "
#1115
b11101111 "
#1116
b11110000 "
#1117
b11110001 "
#1118
b11110010 "
#1119
b11110011 "
#1120
b11110100 "
#1121
b11110101 "
#1122
b11110110 "
#1123
b11110111 "
#1124
b11111000 "
#1125
b11111001 "
#1126
b11111010 "
#1127
b11111011 "
#1128
b11111100 "
#1129
b11111101 "
#1130
b11111110 "
#1131
b11111111 "
#1132
b0 "
#1133
b1 "
#1134
b10 "
#1135
b11 "
#1136
b100 "
#1137
b101 "
#1138
b110 "
#1139
b111 "
#1140
b1000 "
#1141
b1001 "
#1142
b1010 "
#1143
b1011 "
#1144
b1100 "
#1145
b1101 "
#1146
b1110 "
#1147
b1111 "
#1148
b10000 "
#1149
b10001 "
#1150
b10010 "
#1151
b10011 "
#1152
b10100 "
#1153
b10101 "
#1154
b10110 "
#1155
b10111 "
#1156
b11000 "
#1157
b11001 "
#1158
b11010 "
#1159
b11011 "
#1160
b11100 "
#1161
b11101 "
#1162
b11110 "
#1163
b11111 "
#1164
b100000 "
#1165
b100001 "
#1166
b100010 "
#1167
b100011 "
#1168
b100100 "
#1169
b100101 "
#1170
b100110 "
#1171
b100111 "
#1172
b101000 "
#1173
b101001 "
#1174
b101010 "
#1175
b101011 "
0z
#1176
b101100 "
#1177
b101101 "
#1178
b101110 "
#1179
b101111 "
#1180
b110000 "
#1181
b110001 "
#1182
b110010 "
#1183
b110011 "
#1184
b110100 "
#1185
b110101 "
#1186
b110110 "
#1187
b110111 "
#1188
b111000 "
#1189
b111001 "
#1190
b111010 "
#1191
b111011 "
#1192
b111100 "
#1193
b111101 "
#1194
b111110 "
#1195
b111111 "
#1196
b1000000 "
#1197
b1000001 "
#1198
b1000010 "
#1199
b1000011 "
#1200
b1000100 "
#1201
b1000101 "
#1202
b1000110 "
#1203
b1000111 "
#1204
b1001000 "
#1205
b1001001 "
#1206
b1001010 "
#1207
b1001011 "
#1208
b1001100 "
#1209
b1001101 "
#1210
b1001110 "
#1211
b1001111 "
#1212
b1010000 "
#1213
b1010001 "
#1214
b1010010 "
#1215
b1010011 "
#1216
b1010100 "
#1217
b1010101 "
#1218
b1010110 "
#1219
b1010111 "
#1220
b1011000 "
#1221
b1011001 "
#1222
b1011010 "
#1223
b1011011 "
#1224
b1011100 "
#1225
b1011101 "
#1226
b1011110 "
#1227
b1011111 "
#1228
b1100000 "
#1229
b1100001 "
#1230
b1100010 "
#1231
b1100011 "
#1232
b1100100 "
#1233
b1100101 "
#1234
b1100110 "
#1235
b1100111 "
#1236
b1101000 "
#1237
b1101001 "
#1238
b1101010 "
#1239
b1101011 "
#1240
b1101100 "
#1241
b1101101 "
#1242
b1101110 "
#1243
b1101111 "
#1244
b1110000 "
#1245
b1110001 "
#1246
b1110010 "
#1247
b1110011 "
#1248
b1110100 "
#1249
b1110101 "
#1250
b1110110 "
#1251
b1110111 "
#1252
b1111000 "
#1253
b1111001 "
#1254
b1111010 "
#1255
b1111011 "
#1256
b1111100 "
#1257
b1111101 "
#1258
b1111110 "
#1259
b1111111 "
#1260
b10000000 "
#1261
b10000001 "
#1262
b10000010 "
#1263
b10000011 "
#1264
b10000100 "
#1265
b10000101 "
#1266
b10000110 "
#1267
b10000111 "
#1268
b10001000 "
#1269
b10001001 "
#1270
b10001010 "
#1271
b10001011 "
#1272
b10001100 "
#1273
b10001101 "
#1274
b10001110 "
#1275
b10001111 "
#1276
b10010000 "
#1277
b10010001 "
#1278
b10010010 "
#1279
b10010011 "
#1280
b10010100 "
#1281
b10010101 "
#1282
b10010110 "
#1283
b10010111 "
#1284
b10011000 "
#1285
b10011001 "
#1286
b10011010 "
#1287
b10011011 "
#1288
b10011100 "
#1289
b10011101 "
#1290
b10011110 "
#1291
b10011111 "
#1292
b10100000 "
#1293
b10100001 "
#1294
b10100010 "
#1295
b10100011 "
#1296
b10100100 "
#1297
b10100101 "
#1298
b10100110 "
#1299
b10100111 "
#1300
b10101000 "
#1301
b10101001 "
#1302
b10101010 "
#1303
b10101011 "
#1304
b10101100 "
#1305
b10101101 "
#1306
b10101110 "
#1307
b10101111 "
#1308
b10110000 "
#1309
b10110001 "
#1310
b10110010 "
#1311
b10110011 "
#1312
b10110100 "
#1313
b10110101 "
#1314
b10110110 "
#1315
b10110111 "
#1316
b10111000 "
#1317
b10111001 "
#1318
b10111010 "
#1319
b10111011 "
#1320
b10111100 "
#1321
b10111101 "
#1322
b10111110 "
#1323
b10111111 "
#1324
b11000000 "
#1325
b11000001 "
#1326
b11000010 "
#1327
b11000011 "
#1328
b11000100 "
#1329
b11000101 "
#1330
b11000110 "
#1331
b11000111 "
#1332
b11001000 "
#1333
b11001001 "
#1334
b11001010 "
#1335
b11001011 "
#1336
b11001100 "
#1337
b11001101 "
#1338
b11001110 "
#1339
b11001111 "
#1340
b11010000 "
#1341
b11010001 "
#1342
b11010010 "
#1343
b11010011 "
#1344
b11010100 "
#1345
b11010101 "
#1346
b11010110 "
#1347
b11010111 "
#1348
b11011000 "
#1349
b11011001 "
#1350
b11011010 "
#1351
b11011011 "
#1352
b11011100 "
#1353
b11011101 "
#1354
b11011110 "
#1355
b11011111 "
#1356
b11100000 "
#1357
b11100001 "
#1358
b11100010 "
#1359
b11100011 "
#1360
b11100100 "
#1361
b11100101 "
#1362
b11100110 "
#1363
b11100111 "
#1364
b11101000 "
#1365
b11101001 "
#1366
b11101010 "
#1367
b11101011 "
#1368
b11101100 "
#1369
b11101101 "
#1370
b11101110 "
#1371
b11101111 "
#1372
b11110000 "
#1373
b11110001 "
#1374
b11110010 "
#1375
b11110011 "
#1376
b11110100 "
#1377
b11110101 "
#1378
b11110110 "
#1379
b11110111 "
#1380
b11111000 "
#1381
b11111001 "
#1382
b11111010 "
#1383
b11111011 "
#1384
b11111100 "
#1385
b11111101 "
#1386
b11111110 "
#1387
b11111111 "
#1388
b0 "
#1389
b1 "
#1390
b10 "
#1391
b11 "
#1392
b100 "
#1393
b101 "
#1394
b110 "
#1395
b111 "
#1396
b1000 "
#1397
b1001 "
#1398
b1010 "
#1399
b1011 "
#1400
b1100 "
#1401
b1101 "
#1402
b1110 "
#1403
b1111 "
#1404
b10000 "
#1405
b10001 "
#1406
b10010 "
#1407
b10011 "
#1408
b10100 "
#1409
b10101 "
#1410
b10110 "
#1411
b10111 "
#1412
b11000 "
#1413
b11001 "
#1414
b11010 "
