logic_analyzer/.Xil/Vivado-29564-forever/hw_ila_data_1/zip_work/waveform.vcd
$date
        2025-Nov-05 23:41:17
$end
$version
        Vivado v2020.2 (64-bit)
$end
$timescale
        1ps
$end
$scope module dut $end
$var reg 8 " sample_data [7:0] $end
$var reg 1 * wr_en $end
$var reg 11 + wr_addr [10:0] $end
$var reg 8 6 wr_data [7:0] $end
$var reg 1 > capturing $end
$var reg 1 ? triggered $end
$var reg 1 @ capture_done $end
$var reg 11 A trigger_index [10:0] $end
$var reg 1 L trigger_enable_state $end
$var reg 2 M trigger_mode_sel [1:0] $end
$var reg 3 O config_channel_idx [2:0] $end
$var reg 1 R btn_trigger_pulse $end
$var reg 1 S btn_channel_pulse $end
$var reg 1 T btn_type_pulse $end
$var reg 1 U btn_mode_pulse $end
$var reg 8 V curr_trig_cfg_ext [7:0] $end
$var reg 1 ^ p_1_in $end
$var reg 2 _ p_0_in [1:0] $end
$var reg 8 a tx_data [7:0] $end
$var reg 1 i tx_valid $end
$var reg 1 j tx_ready $end
$var reg 1 k busy $end
$var reg 11 l rd_addr [10:0] $end
$var reg 3 w state [2:0] $end
$var reg 1 z uart_tx_OBUF $end
$var reg 8 { rd_data [7:0] $end
$var reg 1 %" _TRIGGER $end
$var reg 1 &" _WINDOW $end
$var reg 1 '" _GAP $end
$upscope $end
$enddefinitions $end
#0
$dumpvars
b1010000 "
0*
b0 +
b110101 6
0>
0?
0@
b0 A
0L
b0 M
b0 O
0R
0S
0T
0U
b1 V
1^
b0 _
b0 a
0i
1j
0k
b0 l
b0 w
1z
b0 {
0%"
1&"
0'"
$end
#1
b1010001 "
#2
b1010010 "
#3
b1010011 "
#4
b1010100 "
#5
b1010101 "
#6
b1010110 "
#7
b1010111 "
#8
b1011000 "
#9
b1011001 "
#10
b1011010 "
#11
b1011011 "
#12
b1011100 "
#13
b1011101 "
#14
b1011110 "
#15
b1011111 "
#16
b1100000 "
#17
b1100001 "
#18
b1100010 "
#19
b1100011 "
#20
b1100100 "
#21
b1100101 "
#22
b1100110 "
#23
b1100111 "
#24
b1101000 "
#25
b1101001 "
#26
b1101010 "
#27
b1101011 "
#28
b1101100 "
#29
b1101101 "
#30
b1101110 "
#31
b1101111 "
#32
b1110000 "
#33
b1110001 "
#34
b1110010 "
#35
b1110011 "
#36
b1110100 "
#37
b1110101 "
#38
b1110110 "
#39
b1110111 "
#40
b1111000 "
#41
b1111001 "
#42
b1111010 "
#43
b1111011 "
#44
b1111100 "
#45
b1111101 "
#46
b1111110 "
#47
b1111111 "
#48
b10000000 "
#49
b10000001 "
#50
b10000010 "
#51
b10000011 "
#52
b10000100 "
#53
b10000101 "
#54
b10000110 "
#55
b10000111 "
#56
b10001000 "
#57
b10001001 "
#58
b10001010 "
#59
b10001011 "
#60
b10001100 "
#61
b10001101 "
#62
b10001110 "
#63
b10001111 "
#64
b10010000 "
#65
b10010001 "
#66
b10010010 "
#67
b10010011 "
#68
b10010100 "
#69
b10010101 "
#70
b10010110 "
#71
b10010111 "
#72
b10011000 "
#73
b10011001 "
#74
b10011010 "
#75
b10011011 "
#76
b10011100 "
#77
b10011101 "
#78
b10011110 "
#79
b10011111 "
#80
b10100000 "
#81
b10100001 "
#82
b10100010 "
#83
b10100011 "
#84
b10100100 "
#85
b10100101 "
#86
b10100110 "
#87
b10100111 "
#88
b10101000 "
#89
b10101001 "
#90
b10101010 "
#91
b10101011 "
#92
b10101100 "
#93
b10101101 "
#94
b10101110 "
#95
b10101111 "
#96
b10110000 "
#97
b10110001 "
#98
b10110010 "
#99
b10110011 "
#100
b10110100 "
#101
b10110101 "
#102
b10110110 "
#103
b10110111 "
#104
b10111000 "
#105
b10111001 "
#106
b10111010 "
#107
b10111011 "
#108
b10111100 "
#109
b10111101 "
#110
b10111110 "
#111
b10111111 "
#112
b11000000 "
#113
b11000001 "
#114
b11000010 "
#115
b11000011 "
#116
b11000100 "
#117
b11000101 "
#118
b11000110 "
#119
b11000111 "
#120
b11001000 "
#121
b11001001 "
#122
b11001010 "
#123
b11001011 "
#124
b11001100 "
#125
b11001101 "
#126
b11001110 "
#127
b11001111 "
#128
b11010000 "
#129
b11010001 "
#130
b11010010 "
#131
b11010011 "
#132
b11010100 "
#133
b11010101 "
#134
b11010110 "
#135
b11010111 "
#136
b11011000 "
#137
b11011001 "
#138
b11011010 "
#139
b11011011 "
#140
b11011100 "
#141
b11011101 "
#142
b11011110 "
#143
b11011111 "
#144
b11100000 "
#145
b11100001 "
#146
b11100010 "
#147
b11100011 "
#148
b11100100 "
#149
b11100101 "
#150
b11100110 "
#151
b11100111 "
#152
b11101000 "
#153
b11101001 "
#154
b11101010 "
#155
b11101011 "
#156
b11101100 "
#157
b11101101 "
#158
b11101110 "
#159
b11101111 "
#160
b11110000 "
#161
b11110001 "
#162
b11110010 "
#163
b11110011 "
#164
b11110100 "
#165
b11110101 "
#166
b11110110 "
#167
b11110111 "
#168
b11111000 "
#169
b11111001 "
#170
b11111010 "
#171
b11111011 "
#172
b11111100 "
#173
b11111101 "
#174
b11111110 "
#175
b11111111 "
#176
b0 "
#177
b1 "
#178
b10 "
#179
b11 "
#180
b100 "
#181
b101 "
#182
b110 "
#183
b111 "
#184
b1000 "
#185
b1001 "
#186
b1010 "
#187
b1011 "
#188
b1100 "
#189
b1101 "
#190
b1110 "
#191
b1111 "
#192
b10000 "
#193
b10001 "
#194
b10010 "
#195
b10011 "
#196
b10100 "
#197
b10101 "
#198
b10110 "
#199
b10111 "
#200
b11000 "
#201
b11001 "
#202
b11010 "
#203
b11011 "
#204
b11100 "
#205
b11101 "
#206
b11110 "
#207
b11111 "
#208
b100000 "
#209
b100001 "
#210
b100010 "
#211
b100011 "
#212
b100100 "
#213
b100101 "
#214
b100110 "
#215
b100111 "
#216
b101000 "
#217
b101001 "
#218
b101010 "
#219
b101011 "
#220
b101100 "
#221
b101101 "
#222
b101110 "
#223
b101111 "
#224
b110000 "
#225
b110001 "
#226
b110010 "
#227
b110011 "
#228
b110100 "
#229
b110101 "
#230
b110110 "
#231
b110111 "
#232
b111000 "
#233
b111001 "
#234
b111010 "
#235
b111011 "
#236
b111100 "
#237
b111101 "
#238
b111110 "
#239
b111111 "
#240
b1000000 "
#241
b1000001 "
#242
b1000010 "
#243
b1000011 "
#244
b1000100 "
#245
b1000101 "
#246
b1000110 "
#247
b1000111 "
#248
b1001000 "
#249
b1001001 "
#250
b1001010 "
#251
b1001011 "
#252
b1001100 "
#253
b1001101 "
#254
b1001110 "
#255
b1001111 "
#256
b1010000 "
#257
b1010001 "
#258
b1010010 "
#259
b1010011 "
#260
b1010100 "
#261
b1010101 "
#262
b1010110 "
#263
b1010111 "
#264
b1011000 "
#265
b1011001 "
#266
b1011010 "
#267
b1011011 "
#268
b1011100 "
#269
b1011101 "
#270
b1011110 "
#271
b1011111 "
#272
b1100000 "
#273
b1100001 "
#274
b1100010 "
#275
b1100011 "
#276
b1100100 "
#277
b1100101 "
#278
b1100110 "
#279
b1100111 "
#280
b1101000 "
#281
b1101001 "
#282
b1101010 "
#283
b1101011 "
#284
b1101100 "
#285
b1101101 "
#286
b1101110 "
#287
b1101111 "
#288
b1110000 "
#289
b1110001 "
#290
b1110010 "
#291
b1110011 "
#292
b1110100 "
#293
b1110101 "
#294
b1110110 "
#295
b1110111 "
#296
b1111000 "
#297
b1111001 "
#298
b1111010 "
#299
b1111011 "
#300
b1111100 "
#301
b1111101 "
#302
b1111110 "
#303
b1111111 "
#304
b10000000 "
#305
b10000001 "
#306
b10000010 "
#307
b10000011 "
#308
b10000100 "
#309
b10000101 "
#310
b10000110 "
#311
b10000111 "
#312
b10001000 "
#313
b10001001 "
#314
b10001010 "
#315
b10001011 "
#316
b10001100 "
#317
b10001101 "
#318
b10001110 "
#319
b10001111 "
#320
b10010000 "
#321
b10010001 "
#322
b10010010 "
#323
b10010011 "
#324
b10010100 "
#325
b10010101 "
#326
b10010110 "
#327
b10010111 "
#328
b10011000 "
#329
b10011001 "
#330
b10011010 "
#331
b10011011 "
#332
b10011100 "
#333
b10011101 "
#334
b10011110 "
#335
b10011111 "
#336
b10100000 "
#337
b10100001 "
#338
b10100010 "
#339
b10100011 "
#340
b10100100 "
#341
b10100101 "
#342
b10100110 "
#343
b10100111 "
#344
b10101000 "
#345
b10101001 "
#346
b10101010 "
#347
b10101011 "
#348
b10101100 "
#349
b10101101 "
#350
b10101110 "
#351
b10101111 "
#352
b10110000 "
#353
b10110001 "
#354
b10110010 "
#355
b10110011 "
#356
b10110100 "
#357
b10110101 "
#358
b10110110 "
#359
b10110111 "
#360
b10111000 "
#361
b10111001 "
#362
b10111010 "
#363
b10111011 "
#364
b10111100 "
#365
b10111101 "
#366
b10111110 "
#367
b10111111 "
#368
b11000000 "
#369
b11000001 "
#370
b11000010 "
#371
b11000011 "
#372
b11000100 "
#373
b11000101 "
#374
b11000110 "
#375
b11000111 "
#376
b11001000 "
#377
b11001001 "
#378
b11001010 "
#379
b11001011 "
#380
b11001100 "
#381
b11001101 "
#382
b11001110 "
#383
b11001111 "
#384
b11010000 "
#385
b11010001 "
#386
b11010010 "
#387
b11010011 "
#388
b11010100 "
#389
b11010101 "
#390
b11010110 "
#391
b11010111 "
#392
b11011000 "
#393
b11011001 "
#394
b11011010 "
#395
b11011011 "
#396
b11011100 "
#397
b11011101 "
#398
b11011110 "
#399
b11011111 "
#400
b11100000 "
#401
b11100001 "
#402
b11100010 "
#403
b11100011 "
#404
b11100100 "
#405
b11100101 "
#406
b11100110 "
#407
b11100111 "
#408
b11101000 "
#409
b11101001 "
#410
b11101010 "
#411
b11101011 "
#412
b11101100 "
#413
b11101101 "
#414
b11101110 "
#415
b11101111 "
#416
b11110000 "
#417
b11110001 "
#418
b11110010 "
#419
b11110011 "
#420
b11110100 "
#421
b11110101 "
#422
b11110110 "
#423
b11110111 "
#424
b11111000 "
#425
b11111001 "
#426
b11111010 "
#427
b11111011 "
#428
b11111100 "
#429
b11111101 "
#430
b11111110 "
#431
b11111111 "
#432
b0 "
#433
b1 "
#434
b10 "
#435
b11 "
#436
b100 "
#437
b101 "
#438
b110 "
#439
b111 "
#440
b1000 "
#441
b1001 "
#442
b1010 "
#443
b1011 "
#444
b1100 "
#445
b1101 "
#446
b1110 "
#447
b1111 "
#448
b10000 "
#449
b10001 "
#450
b10010 "
#451
b10011 "
#452
b10100 "
#453
b10101 "
#454
b10110 "
#455
b10111 "
#456
b11000 "
#457
b11001 "
#458
b11010 "
#459
b11011 "
#460
b11100 "
#461
b11101 "
#462
b11110 "
#463
b11111 "
#464
b100000 "
#465
b100001 "
#466
b100010 "
#467
b100011 "
#468
b100100 "
#469
b100101 "
#470
b100110 "
#471
b100111 "
#472
b101000 "
#473
b101001 "
#474
b101010 "
#475
b101011 "
#476
b101100 "
#477
b101101 "
#478
b101110 "
#479
b101111 "
#480
b110000 "
#481
b110001 "
#482
b110010 "
#483
b110011 "
#484
b110100 "
#485
b110101 "
#486
b110110 "
#487
b110111 "
#488
b111000 "
#489
b111001 "
#490
b111010 "
#491
b111011 "
#492
b111100 "
#493
b111101 "
#494
b111110 "
#495
b111111 "
#496
b1000000 "
#497
b1000001 "
#498
b1000010 "
#499
b1000011 "
#500
b1000100 "
#501
b1000101 "
#502
b1000110 "
#503
b1000111 "
#504
b1001000 "
#505
b1001001 "
#506
b1001010 "
#507
b1001011 "
#508
b1001100 "
#509
b1001101 "
#510
b1001110 "
#511
b1001111 "
#512
b1010000 "
#513
b1010001 "
#514
b1010010 "
#515
b1010011 "
#516
b1010100 "
#517
b1010101 "
#518
b1010110 "
#519
b1010111 "
#520
b1011000 "
#521
b1011001 "
#522
b1011010 "
#523
b1011011 "
#524
b1011100 "
#525
b1011101 "
#526
b1011110 "
#527
b1011111 "
#528
b1100000 "
#529
b1100001 "
#530
b1100010 "
#531
b1100011 "
#532
b1100100 "
#533
b1100101 "
#534
b1100110 "
#535
b1100111 "
#536
b1101000 "
#537
b1101001 "
#538
b1101010 "
#539
b1101011 "
#540
b1101100 "
#541
b1101101 "
#542
b1101110 "
#543
b1101111 "
#544
b1110000 "
#545
b1110001 "
#546
b1110010 "
#547
b1110011 "
#548
b1110100 "
#549
b1110101 "
#550
b1110110 "
#551
b1110111 "
#552
b1111000 "
#553
b1111001 "
#554
b1111010 "
#555
b1111011 "
#556
b1111100 "
#557
b1111101 "
#558
b1111110 "
#559
b1111111 "
#560
b10000000 "
#561
b10000001 "
#562
b10000010 "
#563
b10000011 "
#564
b10000100 "
#565
b10000101 "
#566
b10000110 "
#567
b10000111 "
#568
b10001000 "
#569
b10001001 "
#570
b10001010 "
#571
b10001011 "
#572
b10001100 "
#573
b10001101 "
#574
b10001110 "
#575
b10001111 "
#576
b10010000 "
#577
b10010001 "
#578
b10010010 "
#579
b10010011 "
#580
b10010100 "
#581
b10010101 "
#582
b10010110 "
#583
b10010111 "
#584
b10011000 "
#585
b10011001 "
#586
b10011010 "
#587
b10011011 "
#588
b10011100 "
#589
b10011101 "
#590
b10011110 "
#591
b10011111 "
#592
b10100000 "
#593
b10100001 "
#594
b10100010 "
#595
b10100011 "
#596
b10100100 "
#597
b10100101 "
#598
b10100110 "
#599
b10100111 "
#600
b10101000 "
#601
b10101001 "
#602
b10101010 "
#603
b10101011 "
#604
b10101100 "
#605
b10101101 "
#606
b10101110 "
#607
b10101111 "
#608
b10110000 "
#609
b10110001 "
#610
b10110010 "
#611
b10110011 "
#612
b10110100 "
#613
b10110101 "
#614
b10110110 "
#615
b10110111 "
#616
b10111000 "
#617
b10111001 "
#618
b10111010 "
#619
b10111011 "
#620
b10111100 "
#621
b10111101 "
#622
b10111110 "
#623
b10111111 "
#624
b11000000 "
#625
b11000001 "
#626
b11000010 "
#627
b11000011 "
#628
b11000100 "
#629
b11000101 "
#630
b11000110 "
#631
b11000111 "
#632
b11001000 "
#633
b11001001 "
#634
b11001010 "
#635
b11001011 "
#636
b11001100 "
#637
b11001101 "
#638
b11001110 "
#639
b11001111 "
#640
b11010000 "
#641
b11010001 "
#642
b11010010 "
#643
b11010011 "
#644
b11010100 "
#645
b11010101 "
#646
b11010110 "
#647
b11010111 "
#648
b11011000 "
#649
b11011001 "
#650
b11011010 "
#651
b11011011 "
#652
b11011100 "
#653
b11011101 "
#654
b11011110 "
#655
b11011111 "
#656
b11100000 "
#657
b11100001 "
#658
b11100010 "
#659
b11100011 "
#660
b11100100 "
#661
b11100101 "
#662
b11100110 "
#663
b11100111 "
#664
b11101000 "
#665
b11101001 "
#666
b11101010 "
#667
b11101011 "
#668
b11101100 "
#669
b11101101 "
#670
b11101110 "
#671
b11101111 "
#672
b11110000 "
#673
b11110001 "
#674
b11110010 "
#675
b11110011 "
#676
b11110100 "
#677
b11110101 "
#678
b11110110 "
#679
b11110111 "
#680
b11111000 "
#681
b11111001 "
#682
b11111010 "
#683
b11111011 "
#684
b11111100 "
#685
b11111101 "
#686
b11111110 "
#687
b11111111 "
#688
b0 "
#689
b1 "
#690
b10 "
#691
b11 "
#692
b100 "
#693
b101 "
#694
b110 "
#695
b111 "
#696
b1000 "
#697
b1001 "
#698
b1010 "
#699
b1011 "
#700
b1100 "
#701
b1101 "
#702
b1110 "
#703
b1111 "
#704
b10000 "
#705
b10001 "
#706
b10010 "
#707
b10011 "
#708
b10100 "
#709
b10101 "
#710
b10110 "
#711
b10111 "
#712
b11000 "
#713
b11001 "
#714
b11010 "
#715
b11011 "
#716
b11100 "
#717
b11101 "
#718
b11110 "
#719
b11111 "
#720
b100000 "
#721
b100001 "
#722
b100010 "
#723
b100011 "
#724
b100100 "
#725
b100101 "
#726
b100110 "
#727
b100111 "
#728
b101000 "
#729
b101001 "
#730
b101010 "
#731
b101011 "
#732
b101100 "
#733
b101101 "
#734
b101110 "
#735
b101111 "
#736
b110000 "
#737
b110001 "
#738
b110010 "
#739
b110011 "
#740
b110100 "
#741
b110101 "
#742
b110110 "
#743
b110111 "
#744
b111000 "
#745
b111001 "
#746
b111010 "
#747
b111011 "
#748
b111100 "
#749
b111101 "
#750
b111110 "
#751
b111111 "
#752
b1000000 "
#753
b1000001 "
#754
b1000010 "
#755
b1000011 "
#756
b1000100 "
#757
b1000101 "
#758
b1000110 "
#759
b1000111 "
#760
b1001000 "
#761
b1001001 "
#762
b1001010 "
#763
b1001011 "
#764
b1001100 "
#765
b1001101 "
#766
b1001110 "
#767
b1001111 "
#768
b1010000 "
#769
b1010001 "
#770
b1010010 "
#771
b1010011 "
#772
b1010100 "
#773
b1010101 "
#774
b1010110 "
#775
b1010111 "
#776
b1011000 "
#777
b1011001 "
#778
b1011010 "
#779
b1011011 "
#780
b1011100 "
#781
b1011101 "
#782
b1011110 "
#783
b1011111 "
#784
b1100000 "
#785
b1100001 "
#786
b1100010 "
#787
b1100011 "
#788
b1100100 "
#789
b1100101 "
#790
b1100110 "
#791
b1100111 "
#792
b1101000 "
#793
b1101001 "
#794
b1101010 "
#795
b1101011 "
#796
b1101100 "
#797
b1101101 "
#798
b1101110 "
#799
b1101111 "
#800
b1110000 "
#801
b1110001 "
#802
b1110010 "
#803
b1110011 "
#804
b1110100 "
#805
b1110101 "
#806
b1110110 "
#807
b1110111 "
#808
b1111000 "
#809
b1111001 "
#810
b1111010 "
#811
b1111011 "
#812
b1111100 "
#813
b1111101 "
#814
b1111110 "
#815
b1111111 "
#816
b10000000 "
#817
b10000001 "
#818
b10000010 "
#819
b10000011 "
#820
b10000100 "
#821
b10000101 "
#822
b10000110 "
#823
b10000111 "
#824
b10001000 "
#825
b10001001 "
#826
b10001010 "
#827
b10001011 "
#828
b10001100 "
#829
b10001101 "
#830
b10001110 "
#831
b10001111 "
#832
b10010000 "
#833
b10010001 "
#834
b10010010 "
#835
b10010011 "
#836
b10010100 "
#837
b10010101 "
#838
b10010110 "
#839
b10010111 "
#840
b10011000 "
#841
b10011001 "
#842
b10011010 "
#843
b10011011 "
#844
b10011100 "
#845
b10011101 "
#846
b10011110 "
#847
b10011111 "
#848
b10100000 "
#849
b10100001 "
#850
b10100010 "
#851
b10100011 "
#852
b10100100 "
#853
b10100101 "
#854
b10100110 "
#855
b10100111 "
#856
b10101000 "
#857
b10101001 "
#858
b10101010 "
#859
b10101011 "
#860
b10101100 "
#861
b10101101 "
#862
b10101110 "
#863
b10101111 "
#864
b10110000 "
#865
b10110001 "
#866
b10110010 "
#867
b10110011 "
#868
b10110100 "
#869
b10110101 "
#870
b10110110 "
#871
b10110111 "
#872
b10111000 "
#873
b10111001 "
#874
b10111010 "
#875
b10111011 "
#876
b10111100 "
#877
b10111101 "
#878
b10111110 "
#879
b10111111 "
#880
b11000000 "
#881
b11000001 "
#882
b11000010 "
#883
b11000011 "
#884
b11000100 "
#885
b11000101 "
#886
b11000110 "
#887
b11000111 "
#888
b11001000 "
#889
b11001001 "
#890
b11001010 "
#891
b11001011 "
#892
b11001100 "
#893
b11001101 "
#894
b11001110 "
#895
b11001111 "
#896
b11010000 "
#897
b11010001 "
#898
b11010010 "
#899
b11010011 "
#900
b11010100 "
#901
b11010101 "
#902
b11010110 "
#903
b11010111 "
#904
b11011000 "
#905
b11011001 "
#906
b11011010 "
#907
b11011011 "
#908
b11011100 "
#909
b11011101 "
#910
b11011110 "
#911
b11011111 "
#912
b11100000 "
#913
b11100001 "
#914
b11100010 "
#915
b11100011 "
#916
b11100100 "
#917
b11100101 "
#918
b11100110 "
#919
b11100111 "
#920
b11101000 "
#921
b11101001 "
#922
b11101010 "
#923
b11101011 "
#924
b11101100 "
#925
b11101101 "
#926
b11101110 "
#927
b11101111 "
#928
b11110000 "
#929
b11110001 "
#930
b11110010 "
#931
b11110011 "
#932
b11110100 "
#933
b11110101 "
#934
b11110110 "
#935
b11110111 "
#936
b11111000 "
#937
b11111001 "
#938
b11111010 "
#939
b11111011 "
#940
b11111100 "
#941
b11111101 "
#942
b11111110 "
#943
b11111111 "
#944
b0 "
#945
b1 "
#946
b10 "
#947
b11 "
#948
b100 "
#949
b101 "
#950
b110 "
#951
b111 "
#952
b1000 "
#953
b1001 "
#954
b1010 "
#955
b1011 "
#956
b1100 "
#957
b1101 "
#958
b1110 "
#959
b1111 "
#960
b10000 "
#961
b10001 "
#962
b10010 "
#963
b10011 "
#964
b10100 "
#965
b10101 "
#966
b10110 "
#967
b10111 "
#968
b11000 "
#969
b11001 "
#970
b11010 "
#971
b11011 "
#972
b11100 "
#973
b11101 "
#974
b11110 "
#975
b11111 "
#976
b100000 "
#977
b100001 "
#978
b100010 "
#979
b100011 "
#980
b100100 "
#981
b100101 "
#982
b100110 "
#983
b100111 "
#984
b101000 "
#985
b101001 "
#986
b101010 "
#987
b101011 "
#988
b101100 "
#989
b101101 "
#990
b101110 "
#991
b101111 "
#992
b110000 "
#993
b110001 "
#994
b110010 "
#995
b110011 "
#996
b110100 "
#997
b110101 "
#998
b110110 "
#999
b110111 "
#1000
b111000 "
#1001
b111001 "
#1002
b111010 "
#1003
b111011 "
#1004
b111100 "
#1005
b111101 "
#1006
b111110 "
#1007
b111111 "
#1008
b1000000 "
#1009
b1000001 "
#1010
b1000010 "
#1011
b1000011 "
#1012
b1000100 "
#1013
b1000101 "
#1014
b1000110 "
#1015
b1000111 "
#1016
b1001000 "
#1017
b1001001 "
#1018
b1001010 "
#1019
b1001011 "
#1020
b1001100 "
1R
#1021
b1001101 "
1L
0R
#1022
b1001110 "
#1023
b1001111 "
1>
#1024
b1010000 "
1*
b1 +
b1001111 6
1?
1%"
#1025
b1010001 "
b10 +
b1010000 6
#1026
b1010010 "
b11 +
b1010001 6
#1027
b1010011 "
b100 +
b1010010 6
#1028
b1010100 "
b101 +
b1010011 6
#1029
b1010101 "
b110 +
b1010100 6
#1030
b1010110 "
b111 +
b1010101 6
#1031
b1010111 "
b1000 +
b1010110 6
#1032
b1011000 "
b1001 +
b1010111 6
#1033
b1011001 "
b1010 +
b1011000 6
#1034
b1011010 "
b1011 +
b1011001 6
#1035
b1011011 "
b1100 +
b1011010 6
#1036
b1011100 "
b1101 +
b1011011 6
#1037
b1011101 "
b1110 +
b1011100 6
#1038
b1011110 "
b1111 +
b1011101 6
#1039
b1011111 "
b10000 +
b1011110 6
#1040
b1100000 "
b10001 +
b1011111 6
#1041
b1100001 "
b10010 +
b1100000 6
#1042
b1100010 "
b10011 +
b1100001 6
#1043
b1100011 "
b10100 +
b1100010 6
#1044
b1100100 "
b10101 +
b1100011 6
#1045
b1100101 "
b10110 +
b1100100 6
#1046
b1100110 "
b10111 +
b1100101 6
#1047
b1100111 "
b11000 +
b1100110 6
#1048
b1101000 "
b11001 +
b1100111 6
#1049
b1101001 "
b11010 +
b1101000 6
#1050
b1101010 "
b11011 +
b1101001 6
#1051
b1101011 "
b11100 +
b1101010 6
#1052
b1101100 "
b11101 +
b1101011 6
#1053
b1101101 "
b11110 +
b1101100 6
#1054
b1101110 "
b11111 +
b1101101 6
#1055
b1101111 "
b100000 +
b1101110 6
#1056
b1110000 "
b100001 +
b1101111 6
#1057
b1110001 "
b100010 +
b1110000 6
#1058
b1110010 "
b100011 +
b1110001 6
#1059
b1110011 "
b100100 +
b1110010 6
#1060
b1110100 "
b100101 +
b1110011 6
#1061
b1110101 "
b100110 +
b1110100 6
#1062
b1110110 "
b100111 +
b1110101 6
#1063
b1110111 "
b101000 +
b1110110 6
#1064
b1111000 "
b101001 +
b1110111 6
#1065
b1111001 "
b101010 +
b1111000 6
#1066
b1111010 "
b101011 +
b1111001 6
#1067
b1111011 "
b101100 +
b1111010 6
#1068
b1111100 "
b101101 +
b1111011 6
#1069
b1111101 "
b101110 +
b1111100 6
#1070
b1111110 "
b101111 +
b1111101 6
#1071
b1111111 "
b110000 +
b1111110 6
#1072
b10000000 "
b110001 +
b1111111 6
#1073
b10000001 "
b110010 +
b10000000 6
#1074
b10000010 "
b110011 +
b10000001 6
#1075
b10000011 "
b110100 +
b10000010 6
#1076
b10000100 "
b110101 +
b10000011 6
#1077
b10000101 "
b110110 +
b10000100 6
#1078
b10000110 "
b110111 +
b10000101 6
#1079
b10000111 "
b111000 +
b10000110 6
#1080
b10001000 "
b111001 +
b10000111 6
#1081
b10001001 "
b111010 +
b10001000 6
#1082
b10001010 "
b111011 +
b10001001 6
#1083
b10001011 "
b111100 +
b10001010 6
#1084
b10001100 "
b111101 +
b10001011 6
#1085
b10001101 "
b111110 +
b10001100 6
#1086
b10001110 "
b111111 +
b10001101 6
#1087
b10001111 "
b1000000 +
b10001110 6
#1088
b10010000 "
b1000001 +
b10001111 6
#1089
b10010001 "
b1000010 +
b10010000 6
#1090
b10010010 "
b1000011 +
b10010001 6
#1091
b10010011 "
b1000100 +
b10010010 6
#1092
b10010100 "
b1000101 +
b10010011 6
#1093
b10010101 "
b1000110 +
b10010100 6
#1094
b10010110 "
b1000111 +
b10010101 6
#1095
b10010111 "
b1001000 +
b10010110 6
#1096
b10011000 "
b1001001 +
b10010111 6
#1097
b10011001 "
b1001010 +
b10011000 6
#1098
b10011010 "
b1001011 +
b10011001 6
#1099
b10011011 "
b1001100 +
b10011010 6
#1100
b10011100 "
b1001101 +
b10011011 6
#1101
b10011101 "
b1001110 +
b10011100 6
#1102
b10011110 "
b1001111 +
b10011101 6
#1103
b10011111 "
b1010000 +
b10011110 6
#1104
b10100000 "
b1010001 +
b10011111 6
#1105
b10100001 "
b1010010 +
b10100000 6
#1106
b10100010 "
b1010011 +
b10100001 6
#1107
b10100011 "
b1010100 +
b10100010 6
#1108
b10100100 "
b1010101 +
b10100011 6
#1109
b10100101 "
b1010110 +
b10100100 6
#1110
b10100110 "
b1010111 +
b10100101 6
#1111
b10100111 "
b1011000 +
b10100110 6
#1112
b10101000 "
b1011001 +
b10100111 6
#1113
b10101001 "
b1011010 +
b10101000 6
#1114
b10101010 "
b1011011 +
b10101001 6
#1115
b10101011 "
b1011100 +
b10101010 6
#1116
b10101100 "
b1011101 +
b10101011 6
#1117
b10101101 "
b1011110 +
b10101100 6
#1118
b10101110 "
b1011111 +
b10101101 6
#1119
b10101111 "
b1100000 +
b10101110 6
#1120
b10110000 "
b1100001 +
b10101111 6
#1121
b10110001 "
b1100010 +
b10110000 6
#1122
b10110010 "
b1100011 +
b10110001 6
#1123
b10110011 "
b1100100 +
b10110010 6
#1124
b10110100 "
b1100101 +
b10110011 6
#1125
b10110101 "
b1100110 +
b10110100 6
#1126
b10110110 "
b1100111 +
b10110101 6
#1127
b10110111 "
b1101000 +
b10110110 6
#1128
b10111000 "
b1101001 +
b10110111 6
#1129
b10111001 "
b1101010 +
b10111000 6
#1130
b10111010 "
b1101011 +
b10111001 6
#1131
b10111011 "
b1101100 +
b10111010 6
#1132
b10111100 "
b1101101 +
b10111011 6
#1133
b10111101 "
b1101110 +
b10111100 6
#1134
b10111110 "
b1101111 +
b10111101 6
#1135
b10111111 "
b1110000 +
b10111110 6
#1136
b11000000 "
b1110001 +
b10111111 6
#1137
b11000001 "
b1110010 +
b11000000 6
#1138
b11000010 "
b1110011 +
b11000001 6
#1139
b11000011 "
b1110100 +
b11000010 6
#1140
b11000100 "
b1110101 +
b11000011 6
#1141
b11000101 "
b1110110 +
b11000100 6
#1142
b11000110 "
b1110111 +
b11000101 6
#1143
b11000111 "
b1111000 +
b11000110 6
#1144
b11001000 "
b1111001 +
b11000111 6
#1145
b11001001 "
b1111010 +
b11001000 6
#1146
b11001010 "
b1111011 +
b11001001 6
#1147
b11001011 "
b1111100 +
b11001010 6
#1148
b11001100 "
b1111101 +
b11001011 6
#1149
b11001101 "
b1111110 +
b11001100 6
#1150
b11001110 "
b1111111 +
b11001101 6
#1151
b11001111 "
b10000000 +
b11001110 6
#1152
b11010000 "
b10000001 +
b11001111 6
#1153
b11010001 "
b10000010 +
b11010000 6
#1154
b11010010 "
b10000011 +
b11010001 6
#1155
b11010011 "
b10000100 +
b11010010 6
#1156
b11010100 "
b10000101 +
b11010011 6
#1157
b11010101 "
b10000110 +
b11010100 6
#1158
b11010110 "
b10000111 +
b11010101 6
#1159
b11010111 "
b10001000 +
b11010110 6
#1160
b11011000 "
b10001001 +
b11010111 6
#1161
b11011001 "
b10001010 +
b11011000 6
#1162
b11011010 "
b10001011 +
b11011001 6
#1163
b11011011 "
b10001100 +
b11011010 6
#1164
b11011100 "
b10001101 +
b11011011 6
#1165
b11011101 "
b10001110 +
b11011100 6
#1166
b11011110 "
b10001111 +
b11011101 6
#1167
b11011111 "
b10010000 +
b11011110 6
#1168
b11100000 "
b10010001 +
b11011111 6
#1169
b11100001 "
b10010010 +
b11100000 6
#1170
b11100010 "
b10010011 +
b11100001 6
#1171
b11100011 "
b10010100 +
b11100010 6
#1172
b11100100 "
b10010101 +
b11100011 6
#1173
b11100101 "
b10010110 +
b11100100 6
#1174
b11100110 "
b10010111 +
b11100101 6
#1175
b11100111 "
b10011000 +
b11100110 6
#1176
b11101000 "
b10011001 +
b11100111 6
#1177
b11101001 "
b10011010 +
b11101000 6
#1178
b11101010 "
b10011011 +
b11101001 6
#1179
b11101011 "
b10011100 +
b11101010 6
#1180
b11101100 "
b10011101 +
b11101011 6
#1181
b11101101 "
b10011110 +
b11101100 6
#1182
b11101110 "
b10011111 +
b11101101 6
#1183
b11101111 "
b10100000 +
b11101110 6
#1184
b11110000 "
b10100001 +
b11101111 6
#1185
b11110001 "
b10100010 +
b11110000 6
#1186
b11110010 "
b10100011 +
b11110001 6
#1187
b11110011 "
b10100100 +
b11110010 6
#1188
b11110100 "
b10100101 +
b11110011 6
#1189
b11110101 "
b10100110 +
b11110100 6
#1190
b11110110 "
b10100111 +
b11110101 6
#1191
b11110111 "
b10101000 +
b11110110 6
#1192
b11111000 "
b10101001 +
b11110111 6
#1193
b11111001 "
b10101010 +
b11111000 6
