logic_analyzer/.Xil/Vivado-29564-forever/hw_ila_data_1/zip_work/waveform.vcd
$date
        2025-Nov-06 00:18:52
$end
$version
        Vivado v2020.2 (64-bit)
$end
$timescale
        1ps
$end
$scope module dut $end
$var reg 8 " sample_data [7:0] $end
$var reg 1 * wr_en $end
$var reg 11 + wr_addr [10:0] $end
$var reg 8 6 wr_data [7:0] $end
$var reg 1 > capturing $end
$var reg 1 ? triggered $end
$var reg 1 @ capture_done $end
$var reg 11 A trigger_index [10:0] $end
$var reg 1 L trigger_enable_state $end
$var reg 2 M trigger_mode_sel [1:0] $end
$var reg 3 O config_channel_idx [2:0] $end
$var reg 1 R btn_trigger_pulse $end
$var reg 1 S btn_channel_pulse $end
$var reg 1 T btn_type_pulse $end
$var reg 1 U btn_mode_pulse $end
$var reg 8 V curr_trig_cfg_ext [7:0] $end
$var reg 1 ^ p_1_in $end
$var reg 2 _ p_0_in [1:0] $end
$var reg 8 a tx_data [7:0] $end
$var reg 1 i tx_valid $end
$var reg 1 j tx_ready $end
$var reg 1 k busy $end
$var reg 11 l rd_addr [10:0] $end
$var reg 3 w state [2:0] $end
$var reg 1 z uart_tx_OBUF $end
$var reg 8 { rd_data [7:0] $end
$var reg 1 %" _TRIGGER $end
$var reg 1 &" _WINDOW $end
$var reg 1 '" _GAP $end
$upscope $end
$enddefinitions $end
#0
$dumpvars
b1111001 "
1*
b11100001001 +
b1111000 6
0>
1?
0@
b11011101000 A
1L
b1 M
b11 O
0R
0S
0T
0U
b101 V
1^
b0 _
b0 a
0i
1j
0k
b0 l
b0 w
1z
b1101101 {
0%"
1&"
0'"
$end
#1
b1111010 "
b11100001010 +
b1111001 6
#2
b1111011 "
b11100001011 +
b1111010 6
#3
b1111100 "
b11100001100 +
b1111011 6
#4
b1111101 "
b11100001101 +
b1111100 6
#5
b1111110 "
b11100001110 +
b1111101 6
#6
b1111111 "
b11100001111 +
b1111110 6
#7
b10000000 "
b11100010000 +
b1111111 6
#8
b10000001 "
b11100010001 +
b10000000 6
#9
b10000010 "
b11100010010 +
b10000001 6
#10
b10000011 "
b11100010011 +
b10000010 6
#11
b10000100 "
b11100010100 +
b10000011 6
#12
b10000101 "
b11100010101 +
b10000100 6
#13
b10000110 "
b11100010110 +
b10000101 6
#14
b10000111 "
b11100010111 +
b10000110 6
#15
b10001000 "
b11100011000 +
b10000111 6
#16
b10001001 "
b11100011001 +
b10001000 6
#17
b10001010 "
b11100011010 +
b10001001 6
#18
b10001011 "
b11100011011 +
b10001010 6
#19
b10001100 "
b11100011100 +
b10001011 6
#20
b10001101 "
b11100011101 +
b10001100 6
#21
b10001110 "
b11100011110 +
b10001101 6
#22
b10001111 "
b11100011111 +
b10001110 6
#23
b10010000 "
b11100100000 +
b10001111 6
#24
b10010001 "
b11100100001 +
b10010000 6
#25
b10010010 "
b11100100010 +
b10010001 6
#26
b10010011 "
b11100100011 +
b10010010 6
#27
b10010100 "
b11100100100 +
b10010011 6
#28
b10010101 "
b11100100101 +
b10010100 6
#29
b10010110 "
b11100100110 +
b10010101 6
#30
b10010111 "
b11100100111 +
b10010110 6
#31
b10011000 "
b11100101000 +
b10010111 6
#32
b10011001 "
b11100101001 +
b10011000 6
#33
b10011010 "
b11100101010 +
b10011001 6
#34
b10011011 "
b11100101011 +
b10011010 6
#35
b10011100 "
b11100101100 +
b10011011 6
#36
b10011101 "
b11100101101 +
b10011100 6
#37
b10011110 "
b11100101110 +
b10011101 6
#38
b10011111 "
b11100101111 +
b10011110 6
#39
b10100000 "
b11100110000 +
b10011111 6
#40
b10100001 "
b11100110001 +
b10100000 6
#41
b10100010 "
b11100110010 +
b10100001 6
#42
b10100011 "
b11100110011 +
b10100010 6
#43
b10100100 "
b11100110100 +
b10100011 6
#44
b10100101 "
b11100110101 +
b10100100 6
#45
b10100110 "
b11100110110 +
b10100101 6
#46
b10100111 "
b11100110111 +
b10100110 6
#47
b10101000 "
b11100111000 +
b10100111 6
#48
b10101001 "
b11100111001 +
b10101000 6
#49
b10101010 "
b11100111010 +
b10101001 6
#50
b10101011 "
b11100111011 +
b10101010 6
#51
b10101100 "
b11100111100 +
b10101011 6
#52
b10101101 "
b11100111101 +
b10101100 6
#53
b10101110 "
b11100111110 +
b10101101 6
#54
b10101111 "
b11100111111 +
b10101110 6
#55
b10110000 "
b11101000000 +
b10101111 6
#56
b10110001 "
b11101000001 +
b10110000 6
#57
b10110010 "
b11101000010 +
b10110001 6
#58
b10110011 "
b11101000011 +
b10110010 6
#59
b10110100 "
b11101000100 +
b10110011 6
#60
b10110101 "
b11101000101 +
b10110100 6
#61
b10110110 "
b11101000110 +
b10110101 6
#62
b10110111 "
b11101000111 +
b10110110 6
#63
b10111000 "
b11101001000 +
b10110111 6
#64
b10111001 "
b11101001001 +
b10111000 6
#65
b10111010 "
b11101001010 +
b10111001 6
#66
b10111011 "
b11101001011 +
b10111010 6
#67
b10111100 "
b11101001100 +
b10111011 6
#68
b10111101 "
b11101001101 +
b10111100 6
#69
b10111110 "
b11101001110 +
b10111101 6
#70
b10111111 "
b11101001111 +
b10111110 6
#71
b11000000 "
b11101010000 +
b10111111 6
#72
b11000001 "
b11101010001 +
b11000000 6
#73
b11000010 "
b11101010010 +
b11000001 6
#74
b11000011 "
b11101010011 +
b11000010 6
#75
b11000100 "
b11101010100 +
b11000011 6
#76
b11000101 "
b11101010101 +
b11000100 6
#77
b11000110 "
b11101010110 +
b11000101 6
#78
b11000111 "
b11101010111 +
b11000110 6
#79
b11001000 "
b11101011000 +
b11000111 6
#80
b11001001 "
b11101011001 +
b11001000 6
#81
b11001010 "
b11101011010 +
b11001001 6
#82
b11001011 "
b11101011011 +
b11001010 6
#83
b11001100 "
b11101011100 +
b11001011 6
#84
b11001101 "
b11101011101 +
b11001100 6
#85
b11001110 "
b11101011110 +
b11001101 6
#86
b11001111 "
b11101011111 +
b11001110 6
#87
b11010000 "
b11101100000 +
b11001111 6
#88
b11010001 "
b11101100001 +
b11010000 6
#89
b11010010 "
b11101100010 +
b11010001 6
#90
b11010011 "
b11101100011 +
b11010010 6
#91
b11010100 "
b11101100100 +
b11010011 6
#92
b11010101 "
b11101100101 +
b11010100 6
#93
b11010110 "
b11101100110 +
b11010101 6
#94
b11010111 "
b11101100111 +
b11010110 6
#95
b11011000 "
b11101101000 +
b11010111 6
#96
b11011001 "
b11101101001 +
b11011000 6
#97
b11011010 "
b11101101010 +
b11011001 6
#98
b11011011 "
b11101101011 +
b11011010 6
#99
b11011100 "
b11101101100 +
b11011011 6
#100
b11011101 "
b11101101101 +
b11011100 6
#101
b11011110 "
b11101101110 +
b11011101 6
#102
b11011111 "
b11101101111 +
b11011110 6
#103
b11100000 "
b11101110000 +
b11011111 6
#104
b11100001 "
b11101110001 +
b11100000 6
#105
b11100010 "
b11101110010 +
b11100001 6
#106
b11100011 "
b11101110011 +
b11100010 6
#107
b11100100 "
b11101110100 +
b11100011 6
#108
b11100101 "
b11101110101 +
b11100100 6
#109
b11100110 "
b11101110110 +
b11100101 6
#110
b11100111 "
b11101110111 +
b11100110 6
#111
b11101000 "
b11101111000 +
b11100111 6
#112
b11101001 "
b11101111001 +
b11101000 6
#113
b11101010 "
b11101111010 +
b11101001 6
#114
b11101011 "
b11101111011 +
b11101010 6
#115
b11101100 "
b11101111100 +
b11101011 6
#116
b11101101 "
b11101111101 +
b11101100 6
#117
b11101110 "
b11101111110 +
b11101101 6
#118
b11101111 "
b11101111111 +
b11101110 6
#119
b11110000 "
b11110000000 +
b11101111 6
#120
b11110001 "
b11110000001 +
b11110000 6
#121
b11110010 "
b11110000010 +
b11110001 6
#122
b11110011 "
b11110000011 +
b11110010 6
#123
b11110100 "
b11110000100 +
b11110011 6
#124
b11110101 "
b11110000101 +
b11110100 6
#125
b11110110 "
b11110000110 +
b11110101 6
#126
b11110111 "
b11110000111 +
b11110110 6
#127
b11111000 "
b11110001000 +
b11110111 6
#128
b11111001 "
b11110001001 +
b11111000 6
#129
b11111010 "
b11110001010 +
b11111001 6
#130
b11111011 "
b11110001011 +
b11111010 6
#131
b11111100 "
b11110001100 +
b11111011 6
#132
b11111101 "
b11110001101 +
b11111100 6
#133
b11111110 "
b11110001110 +
b11111101 6
#134
b11111111 "
b11110001111 +
b11111110 6
#135
b0 "
b11110010000 +
b11111111 6
#136
b1 "
b11110010001 +
b0 6
#137
b10 "
b11110010010 +
b1 6
#138
b11 "
b11110010011 +
b10 6
#139
b100 "
b11110010100 +
b11 6
#140
b101 "
b11110010101 +
b100 6
#141
b110 "
b11110010110 +
b101 6
#142
b111 "
b11110010111 +
b110 6
#143
b1000 "
b11110011000 +
b111 6
#144
b1001 "
b11110011001 +
b1000 6
#145
b1010 "
b11110011010 +
b1001 6
#146
b1011 "
b11110011011 +
b1010 6
#147
b1100 "
b11110011100 +
b1011 6
#148
b1101 "
b11110011101 +
b1100 6
#149
b1110 "
b11110011110 +
b1101 6
#150
b1111 "
b11110011111 +
b1110 6
#151
b10000 "
b11110100000 +
b1111 6
#152
b10001 "
b11110100001 +
b10000 6
#153
b10010 "
b11110100010 +
b10001 6
#154
b10011 "
b11110100011 +
b10010 6
#155
b10100 "
b11110100100 +
b10011 6
#156
b10101 "
b11110100101 +
b10100 6
#157
b10110 "
b11110100110 +
b10101 6
#158
b10111 "
b11110100111 +
b10110 6
#159
b11000 "
b11110101000 +
b10111 6
#160
b11001 "
b11110101001 +
b11000 6
#161
b11010 "
b11110101010 +
b11001 6
#162
b11011 "
b11110101011 +
b11010 6
#163
b11100 "
b11110101100 +
b11011 6
#164
b11101 "
b11110101101 +
b11100 6
#165
b11110 "
b11110101110 +
b11101 6
#166
b11111 "
b11110101111 +
b11110 6
#167
b100000 "
b11110110000 +
b11111 6
#168
b100001 "
b11110110001 +
b100000 6
#169
b100010 "
b11110110010 +
b100001 6
#170
b100011 "
b11110110011 +
b100010 6
#171
b100100 "
b11110110100 +
b100011 6
#172
b100101 "
b11110110101 +
b100100 6
#173
b100110 "
b11110110110 +
b100101 6
#174
b100111 "
b11110110111 +
b100110 6
#175
b101000 "
b11110111000 +
b100111 6
#176
b101001 "
b11110111001 +
b101000 6
#177
b101010 "
b11110111010 +
b101001 6
#178
b101011 "
b11110111011 +
b101010 6
#179
b101100 "
b11110111100 +
b101011 6
#180
b101101 "
b11110111101 +
b101100 6
#181
b101110 "
b11110111110 +
b101101 6
#182
b101111 "
b11110111111 +
b101110 6
#183
b110000 "
b11111000000 +
b101111 6
#184
b110001 "
b11111000001 +
b110000 6
#185
b110010 "
b11111000010 +
b110001 6
#186
b110011 "
b11111000011 +
b110010 6
#187
b110100 "
b11111000100 +
b110011 6
#188
b110101 "
b11111000101 +
b110100 6
#189
b110110 "
b11111000110 +
b110101 6
#190
b110111 "
b11111000111 +
b110110 6
#191
b111000 "
b11111001000 +
b110111 6
#192
b111001 "
b11111001001 +
b111000 6
#193
b111010 "
b11111001010 +
b111001 6
#194
b111011 "
b11111001011 +
b111010 6
#195
b111100 "
b11111001100 +
b111011 6
#196
b111101 "
b11111001101 +
b111100 6
#197
b111110 "
b11111001110 +
b111101 6
#198
b111111 "
b11111001111 +
b111110 6
#199
b1000000 "
b11111010000 +
b111111 6
#200
b1000001 "
b11111010001 +
b1000000 6
#201
b1000010 "
b11111010010 +
b1000001 6
#202
b1000011 "
b11111010011 +
b1000010 6
#203
b1000100 "
b11111010100 +
b1000011 6
#204
b1000101 "
b11111010101 +
b1000100 6
#205
b1000110 "
b11111010110 +
b1000101 6
#206
b1000111 "
b11111010111 +
b1000110 6
#207
b1001000 "
b11111011000 +
b1000111 6
#208
b1001001 "
b11111011001 +
b1001000 6
#209
b1001010 "
b11111011010 +
b1001001 6
#210
b1001011 "
b11111011011 +
b1001010 6
#211
b1001100 "
b11111011100 +
b1001011 6
#212
b1001101 "
b11111011101 +
b1001100 6
#213
b1001110 "
b11111011110 +
b1001101 6
#214
b1001111 "
b11111011111 +
b1001110 6
#215
b1010000 "
b11111100000 +
b1001111 6
#216
b1010001 "
b11111100001 +
b1010000 6
#217
b1010010 "
b11111100010 +
b1010001 6
#218
b1010011 "
b11111100011 +
b1010010 6
#219
b1010100 "
b11111100100 +
b1010011 6
#220
b1010101 "
b11111100101 +
b1010100 6
#221
b1010110 "
b11111100110 +
b1010101 6
#222
b1010111 "
b11111100111 +
b1010110 6
#223
b1011000 "
b11111101000 +
b1010111 6
#224
b1011001 "
b11111101001 +
b1011000 6
#225
b1011010 "
b11111101010 +
b1011001 6
#226
b1011011 "
b11111101011 +
b1011010 6
#227
b1011100 "
b11111101100 +
b1011011 6
#228
b1011101 "
b11111101101 +
b1011100 6
#229
b1011110 "
b11111101110 +
b1011101 6
#230
b1011111 "
b11111101111 +
b1011110 6
#231
b1100000 "
b11111110000 +
b1011111 6
#232
b1100001 "
b11111110001 +
b1100000 6
#233
b1100010 "
b11111110010 +
b1100001 6
#234
b1100011 "
b11111110011 +
b1100010 6
#235
b1100100 "
b11111110100 +
b1100011 6
#236
b1100101 "
b11111110101 +
b1100100 6
#237
b1100110 "
b11111110110 +
b1100101 6
#238
b1100111 "
b11111110111 +
b1100110 6
#239
b1101000 "
b11111111000 +
b1100111 6
#240
b1101001 "
b11111111001 +
b1101000 6
#241
b1101010 "
b11111111010 +
b1101001 6
#242
b1101011 "
b11111111011 +
b1101010 6
#243
b1101100 "
b11111111100 +
b1101011 6
#244
b1101101 "
b11111111101 +
b1101100 6
#245
b1101110 "
b11111111110 +
b1101101 6
#246
b1101111 "
b11111111111 +
b1101110 6
#247
b1110000 "
b0 +
b1101111 6
#248
b1110001 "
b1 +
b1110000 6
#249
b1110010 "
b10 +
b1110001 6
b1101111 {
#250
b1110011 "
b11 +
b1110010 6
#251
b1110100 "
b100 +
b1110011 6
#252
b1110101 "
b101 +
b1110100 6
#253
b1110110 "
b110 +
b1110101 6
#254
b1110111 "
b111 +
b1110110 6
#255
b1111000 "
b1000 +
b1110111 6
#256
b1111001 "
b1001 +
b1111000 6
#257
b1111010 "
b1010 +
b1111001 6
#258
b1111011 "
b1011 +
b1111010 6
#259
b1111100 "
b1100 +
b1111011 6
#260
b1111101 "
b1101 +
b1111100 6
#261
b1111110 "
b1110 +
b1111101 6
#262
b1111111 "
b1111 +
b1111110 6
#263
b10000000 "
b10000 +
b1111111 6
#264
b10000001 "
b10001 +
b10000000 6
#265
b10000010 "
b10010 +
b10000001 6
#266
b10000011 "
b10011 +
b10000010 6
#267
b10000100 "
b10100 +
b10000011 6
#268
b10000101 "
b10101 +
b10000100 6
#269
b10000110 "
b10110 +
b10000101 6
#270
b10000111 "
b10111 +
b10000110 6
#271
b10001000 "
b11000 +
b10000111 6
#272
b10001001 "
b11001 +
b10001000 6
#273
b10001010 "
b11010 +
b10001001 6
#274
b10001011 "
b11011 +
b10001010 6
#275
b10001100 "
b11100 +
b10001011 6
#276
b10001101 "
b11101 +
b10001100 6
#277
b10001110 "
b11110 +
b10001101 6
#278
b10001111 "
b11111 +
b10001110 6
#279
b10010000 "
b100000 +
b10001111 6
#280
b10010001 "
b100001 +
b10010000 6
#281
b10010010 "
b100010 +
b10010001 6
#282
b10010011 "
b100011 +
b10010010 6
#283
b10010100 "
b100100 +
b10010011 6
#284
b10010101 "
b100101 +
b10010100 6
#285
b10010110 "
b100110 +
b10010101 6
#286
b10010111 "
b100111 +
b10010110 6
#287
b10011000 "
b101000 +
b10010111 6
#288
b10011001 "
b101001 +
b10011000 6
#289
b10011010 "
b101010 +
b10011001 6
#290
b10011011 "
b101011 +
b10011010 6
#291
b10011100 "
b101100 +
b10011011 6
#292
b10011101 "
b101101 +
b10011100 6
#293
b10011110 "
b101110 +
b10011101 6
#294
b10011111 "
b101111 +
b10011110 6
#295
b10100000 "
b110000 +
b10011111 6
#296
b10100001 "
b110001 +
b10100000 6
#297
b10100010 "
b110010 +
b10100001 6
#298
b10100011 "
b110011 +
b10100010 6
#299
b10100100 "
b110100 +
b10100011 6
#300
b10100101 "
b110101 +
b10100100 6
#301
b10100110 "
b110110 +
b10100101 6
#302
b10100111 "
b110111 +
b10100110 6
#303
b10101000 "
b111000 +
b10100111 6
#304
b10101001 "
b111001 +
b10101000 6
#305
b10101010 "
b111010 +
b10101001 6
#306
b10101011 "
b111011 +
b10101010 6
#307
b10101100 "
b111100 +
b10101011 6
#308
b10101101 "
b111101 +
b10101100 6
#309
b10101110 "
b111110 +
b10101101 6
#310
b10101111 "
b111111 +
b10101110 6
#311
b10110000 "
b1000000 +
b10101111 6
#312
b10110001 "
b1000001 +
b10110000 6
#313
b10110010 "
b1000010 +
b10110001 6
#314
b10110011 "
b1000011 +
b10110010 6
#315
b10110100 "
b1000100 +
b10110011 6
#316
b10110101 "
b1000101 +
b10110100 6
#317
b10110110 "
b1000110 +
b10110101 6
#318
b10110111 "
b1000111 +
b10110110 6
#319
b10111000 "
b1001000 +
b10110111 6
#320
b10111001 "
b1001001 +
b10111000 6
#321
b10111010 "
b1001010 +
b10111001 6
#322
b10111011 "
b1001011 +
b10111010 6
#323
b10111100 "
b1001100 +
b10111011 6
#324
b10111101 "
b1001101 +
b10111100 6
#325
b10111110 "
b1001110 +
b10111101 6
#326
b10111111 "
b1001111 +
b10111110 6
#327
b11000000 "
b1010000 +
b10111111 6
#328
b11000001 "
b1010001 +
b11000000 6
#329
b11000010 "
b1010010 +
b11000001 6
#330
b11000011 "
b1010011 +
b11000010 6
#331
b11000100 "
b1010100 +
b11000011 6
#332
b11000101 "
b1010101 +
b11000100 6
#333
b11000110 "
b1010110 +
b11000101 6
#334
b11000111 "
b1010111 +
b11000110 6
#335
b11001000 "
b1011000 +
b11000111 6
#336
b11001001 "
b1011001 +
b11001000 6
#337
b11001010 "
b1011010 +
b11001001 6
#338
b11001011 "
b1011011 +
b11001010 6
#339
b11001100 "
b1011100 +
b11001011 6
#340
b11001101 "
b1011101 +
b11001100 6
#341
b11001110 "
b1011110 +
b11001101 6
#342
b11001111 "
b1011111 +
b11001110 6
#343
b11010000 "
b1100000 +
b11001111 6
#344
b11010001 "
b1100001 +
b11010000 6
#345
b11010010 "
b1100010 +
b11010001 6
#346
b11010011 "
b1100011 +
b11010010 6
#347
b11010100 "
b1100100 +
b11010011 6
#348
b11010101 "
b1100101 +
b11010100 6
#349
b11010110 "
b1100110 +
b11010101 6
#350
b11010111 "
b1100111 +
b11010110 6
#351
b11011000 "
b1101000 +
b11010111 6
#352
b11011001 "
b1101001 +
b11011000 6
#353
b11011010 "
b1101010 +
b11011001 6
#354
b11011011 "
b1101011 +
b11011010 6
#355
b11011100 "
b1101100 +
b11011011 6
#356
b11011101 "
b1101101 +
b11011100 6
#357
b11011110 "
b1101110 +
b11011101 6
#358
b11011111 "
b1101111 +
b11011110 6
#359
b11100000 "
b1110000 +
b11011111 6
#360
b11100001 "
b1110001 +
b11100000 6
#361
b11100010 "
b1110010 +
b11100001 6
#362
b11100011 "
b1110011 +
b11100010 6
#363
b11100100 "
b1110100 +
b11100011 6
#364
b11100101 "
b1110101 +
b11100100 6
#365
b11100110 "
b1110110 +
b11100101 6
#366
b11100111 "
b1110111 +
b11100110 6
#367
b11101000 "
b1111000 +
b11100111 6
#368
b11101001 "
b1111001 +
b11101000 6
#369
b11101010 "
b1111010 +
b11101001 6
#370
b11101011 "
b1111011 +
b11101010 6
#371
b11101100 "
b1111100 +
b11101011 6
#372
b11101101 "
b1111101 +
b11101100 6
#373
b11101110 "
b1111110 +
b11101101 6
#374
b11101111 "
b1111111 +
b11101110 6
#375
b11110000 "
b10000000 +
b11101111 6
#376
b11110001 "
b10000001 +
b11110000 6
#377
b11110010 "
b10000010 +
b11110001 6
#378
b11110011 "
b10000011 +
b11110010 6
#379
b11110100 "
b10000100 +
b11110011 6
#380
b11110101 "
b10000101 +
b11110100 6
#381
b11110110 "
b10000110 +
b11110101 6
#382
b11110111 "
b10000111 +
b11110110 6
#383
b11111000 "
b10001000 +
b11110111 6
#384
b11111001 "
b10001001 +
b11111000 6
#385
b11111010 "
b10001010 +
b11111001 6
#386
b11111011 "
b10001011 +
b11111010 6
#387
b11111100 "
b10001100 +
b11111011 6
#388
b11111101 "
b10001101 +
b11111100 6
#389
b11111110 "
b10001110 +
b11111101 6
#390
b11111111 "
b10001111 +
b11111110 6
#391
b0 "
b10010000 +
b11111111 6
#392
b1 "
b10010001 +
b0 6
#393
b10 "
b10010010 +
b1 6
#394
b11 "
b10010011 +
b10 6
#395
b100 "
b10010100 +
b11 6
#396
b101 "
b10010101 +
b100 6
#397
b110 "
b10010110 +
b101 6
#398
b111 "
b10010111 +
b110 6
#399
b1000 "
b10011000 +
b111 6
#400
b1001 "
b10011001 +
b1000 6
#401
b1010 "
b10011010 +
b1001 6
#402
b1011 "
b10011011 +
b1010 6
#403
b1100 "
b10011100 +
b1011 6
#404
b1101 "
b10011101 +
b1100 6
#405
b1110 "
b10011110 +
b1101 6
#406
b1111 "
b10011111 +
b1110 6
#407
b10000 "
b10100000 +
b1111 6
#408
b10001 "
b10100001 +
b10000 6
#409
b10010 "
b10100010 +
b10001 6
#410
b10011 "
b10100011 +
b10010 6
#411
b10100 "
b10100100 +
b10011 6
#412
b10101 "
b10100101 +
b10100 6
#413
b10110 "
b10100110 +
b10101 6
#414
b10111 "
b10100111 +
b10110 6
#415
b11000 "
b10101000 +
b10111 6
#416
b11001 "
b10101001 +
b11000 6
#417
b11010 "
b10101010 +
b11001 6
#418
b11011 "
b10101011 +
b11010 6
#419
b11100 "
b10101100 +
b11011 6
#420
b11101 "
b10101101 +
b11100 6
#421
b11110 "
b10101110 +
b11101 6
#422
b11111 "
b10101111 +
b11110 6
#423
b100000 "
b10110000 +
b11111 6
#424
b100001 "
b10110001 +
b100000 6
#425
b100010 "
b10110010 +
b100001 6
#426
b100011 "
b10110011 +
b100010 6
#427
b100100 "
b10110100 +
b100011 6
#428
b100101 "
b10110101 +
b100100 6
#429
b100110 "
b10110110 +
b100101 6
#430
b100111 "
b10110111 +
b100110 6
#431
b101000 "
b10111000 +
b100111 6
#432
b101001 "
b10111001 +
b101000 6
#433
b101010 "
b10111010 +
b101001 6
#434
b101011 "
b10111011 +
b101010 6
#435
b101100 "
b10111100 +
b101011 6
#436
b101101 "
b10111101 +
b101100 6
#437
b101110 "
b10111110 +
b101101 6
#438
b101111 "
b10111111 +
b101110 6
#439
b110000 "
b11000000 +
b101111 6
#440
b110001 "
b11000001 +
b110000 6
#441
b110010 "
b11000010 +
b110001 6
#442
b110011 "
b11000011 +
b110010 6
#443
b110100 "
b11000100 +
b110011 6
#444
b110101 "
b11000101 +
b110100 6
#445
b110110 "
b11000110 +
b110101 6
#446
b110111 "
b11000111 +
b110110 6
#447
b111000 "
b11001000 +
b110111 6
#448
b111001 "
b11001001 +
b111000 6
#449
b111010 "
b11001010 +
b111001 6
#450
b111011 "
b11001011 +
b111010 6
#451
b111100 "
b11001100 +
b111011 6
#452
b111101 "
b11001101 +
b111100 6
#453
b111110 "
b11001110 +
b111101 6
#454
b111111 "
b11001111 +
b111110 6
#455
b1000000 "
b11010000 +
b111111 6
#456
b1000001 "
b11010001 +
b1000000 6
#457
b1000010 "
b11010010 +
b1000001 6
#458
b1000011 "
b11010011 +
b1000010 6
#459
b1000100 "
b11010100 +
b1000011 6
#460
b1000101 "
b11010101 +
b1000100 6
#461
b1000110 "
b11010110 +
b1000101 6
#462
b1000111 "
b11010111 +
b1000110 6
#463
b1001000 "
b11011000 +
b1000111 6
#464
b1001001 "
b11011001 +
b1001000 6
#465
b1001010 "
b11011010 +
b1001001 6
#466
b1001011 "
b11011011 +
b1001010 6
#467
b1001100 "
b11011100 +
b1001011 6
#468
b1001101 "
b11011101 +
b1001100 6
#469
b1001110 "
b11011110 +
b1001101 6
#470
b1001111 "
b11011111 +
b1001110 6
#471
b1010000 "
b11100000 +
b1001111 6
#472
b1010001 "
b11100001 +
b1010000 6
#473
b1010010 "
b11100010 +
b1010001 6
#474
b1010011 "
b11100011 +
b1010010 6
#475
b1010100 "
b11100100 +
b1010011 6
#476
b1010101 "
b11100101 +
b1010100 6
#477
b1010110 "
b11100110 +
b1010101 6
#478
b1010111 "
b11100111 +
b1010110 6
#479
b1011000 "
b11101000 +
b1010111 6
#480
b1011001 "
b11101001 +
b1011000 6
#481
b1011010 "
b11101010 +
b1011001 6
#482
b1011011 "
b11101011 +
b1011010 6
#483
b1011100 "
b11101100 +
b1011011 6
#484
b1011101 "
b11101101 +
b1011100 6
#485
b1011110 "
b11101110 +
b1011101 6
#486
b1011111 "
b11101111 +
b1011110 6
#487
b1100000 "
b11110000 +
b1011111 6
#488
b1100001 "
b11110001 +
b1100000 6
#489
b1100010 "
b11110010 +
b1100001 6
#490
b1100011 "
b11110011 +
b1100010 6
#491
b1100100 "
b11110100 +
b1100011 6
#492
b1100101 "
b11110101 +
b1100100 6
#493
b1100110 "
b11110110 +
b1100101 6
#494
b1100111 "
b11110111 +
b1100110 6
#495
b1101000 "
b11111000 +
b1100111 6
#496
b1101001 "
b11111001 +
b1101000 6
#497
b1101010 "
b11111010 +
b1101001 6
#498
b1101011 "
b11111011 +
b1101010 6
#499
b1101100 "
b11111100 +
b1101011 6
#500
b1101101 "
b11111101 +
b1101100 6
#501
b1101110 "
b11111110 +
b1101101 6
#502
b1101111 "
b11111111 +
b1101110 6
#503
b1110000 "
b100000000 +
b1101111 6
#504
b1110001 "
b100000001 +
b1110000 6
#505
b1110010 "
b100000010 +
b1110001 6
#506
b1110011 "
b100000011 +
b1110010 6
#507
b1110100 "
b100000100 +
b1110011 6
#508
b1110101 "
b100000101 +
b1110100 6
#509
b1110110 "
b100000110 +
b1110101 6
#510
b1110111 "
b100000111 +
b1110110 6
#511
b1111000 "
b100001000 +
b1110111 6
#512
b1111001 "
b100001001 +
b1111000 6
#513
b1111010 "
b100001010 +
b1111001 6
#514
b1111011 "
b100001011 +
b1111010 6
#515
b1111100 "
b100001100 +
b1111011 6
#516
b1111101 "
b100001101 +
b1111100 6
#517
b1111110 "
b100001110 +
b1111101 6
#518
b1111111 "
b100001111 +
b1111110 6
#519
b10000000 "
b100010000 +
b1111111 6
#520
b10000001 "
b100010001 +
b10000000 6
#521
b10000010 "
b100010010 +
b10000001 6
#522
b10000011 "
b100010011 +
b10000010 6
#523
b10000100 "
b100010100 +
b10000011 6
#524
b10000101 "
b100010101 +
b10000100 6
#525
b10000110 "
b100010110 +
b10000101 6
#526
b10000111 "
b100010111 +
b10000110 6
#527
b10001000 "
b100011000 +
b10000111 6
#528
b10001001 "
b100011001 +
b10001000 6
#529
b10001010 "
b100011010 +
b10001001 6
#530
b10001011 "
b100011011 +
b10001010 6
#531
b10001100 "
b100011100 +
b10001011 6
#532
b10001101 "
b100011101 +
b10001100 6
#533
b10001110 "
b100011110 +
b10001101 6
#534
b10001111 "
b100011111 +
b10001110 6
#535
b10010000 "
b100100000 +
b10001111 6
#536
b10010001 "
b100100001 +
b10010000 6
#537
b10010010 "
b100100010 +
b10010001 6
#538
b10010011 "
b100100011 +
b10010010 6
#539
b10010100 "
b100100100 +
b10010011 6
#540
b10010101 "
b100100101 +
b10010100 6
#541
b10010110 "
b100100110 +
b10010101 6
#542
b10010111 "
b100100111 +
b10010110 6
#543
b10011000 "
b100101000 +
b10010111 6
#544
b10011001 "
b100101001 +
b10011000 6
#545
b10011010 "
b100101010 +
b10011001 6
#546
b10011011 "
b100101011 +
b10011010 6
#547
b10011100 "
b100101100 +
b10011011 6
#548
b10011101 "
b100101101 +
b10011100 6
#549
b10011110 "
b100101110 +
b10011101 6
#550
b10011111 "
b100101111 +
b10011110 6
#551
b10100000 "
b100110000 +
b10011111 6
#552
b10100001 "
b100110001 +
b10100000 6
#553
b10100010 "
b100110010 +
b10100001 6
#554
b10100011 "
b100110011 +
b10100010 6
#555
b10100100 "
b100110100 +
b10100011 6
#556
b10100101 "
b100110101 +
b10100100 6
#557
b10100110 "
b100110110 +
b10100101 6
#558
b10100111 "
b100110111 +
b10100110 6
#559
b10101000 "
b100111000 +
b10100111 6
#560
b10101001 "
b100111001 +
b10101000 6
#561
b10101010 "
b100111010 +
b10101001 6
#562
b10101011 "
b100111011 +
b10101010 6
#563
b10101100 "
b100111100 +
b10101011 6
#564
b10101101 "
b100111101 +
b10101100 6
#565
b10101110 "
b100111110 +
b10101101 6
#566
b10101111 "
b100111111 +
b10101110 6
#567
b10110000 "
b101000000 +
b10101111 6
#568
b10110001 "
b101000001 +
b10110000 6
#569
b10110010 "
b101000010 +
b10110001 6
#570
b10110011 "
b101000011 +
b10110010 6
#571
b10110100 "
b101000100 +
b10110011 6
#572
b10110101 "
b101000101 +
b10110100 6
#573
b10110110 "
b101000110 +
b10110101 6
#574
b10110111 "
b101000111 +
b10110110 6
#575
b10111000 "
b101001000 +
b10110111 6
#576
b10111001 "
b101001001 +
b10111000 6
#577
b10111010 "
b101001010 +
b10111001 6
#578
b10111011 "
b101001011 +
b10111010 6
#579
b10111100 "
b101001100 +
b10111011 6
#580
b10111101 "
b101001101 +
b10111100 6
#581
b10111110 "
b101001110 +
b10111101 6
#582
b10111111 "
b101001111 +
b10111110 6
#583
b11000000 "
b101010000 +
b10111111 6
#584
b11000001 "
b101010001 +
b11000000 6
#585
b11000010 "
b101010010 +
b11000001 6
#586
b11000011 "
b101010011 +
b11000010 6
#587
b11000100 "
b101010100 +
b11000011 6
#588
b11000101 "
b101010101 +
b11000100 6
#589
b11000110 "
b101010110 +
b11000101 6
#590
b11000111 "
b101010111 +
b11000110 6
#591
b11001000 "
b101011000 +
b11000111 6
#592
b11001001 "
b101011001 +
b11001000 6
#593
b11001010 "
b101011010 +
b11001001 6
#594
b11001011 "
b101011011 +
b11001010 6
#595
b11001100 "
b101011100 +
b11001011 6
