logic_analyzer/.Xil/Vivado-22916-forever/hw_ila_data_1/zip_work/waveform.vcd
$date
        2025-Nov-06 01:31:15
$end
$version
        Vivado v2020.2 (64-bit)
$end
$timescale
        1ps
$end
$scope module dut $end
$var reg 8 " sample_data [7:0] $end
$var reg 1 * wr_en $end
$var reg 11 + wr_addr [10:0] $end
$var reg 8 6 wr_data [7:0] $end
$var reg 1 > capturing $end
$var reg 1 ? triggered $end
$var reg 1 @ capture_done $end
$var reg 11 A trigger_index [10:0] $end
$var reg 1 L trigger_enable_state $end
$var reg 2 M trigger_mode_sel [1:0] $end
$var reg 3 O config_channel_idx [2:0] $end
$var reg 1 R btn_trigger_pulse $end
$var reg 1 S btn_channel_pulse $end
$var reg 1 T btn_type_pulse $end
$var reg 1 U btn_mode_pulse $end
$var reg 8 V curr_trig_cfg_ext [7:0] $end
$var reg 1 ^ p_1_in $end
$var reg 2 _ p_0_in [1:0] $end
$var reg 8 a tx_data [7:0] $end
$var reg 1 i tx_valid $end
$var reg 1 j tx_ready $end
$var reg 1 k busy $end
$var reg 11 l rd_addr [10:0] $end
$var reg 3 w state [2:0] $end
$var reg 1 z uart_tx_OBUF $end
$var reg 8 { rd_data [7:0] $end
$var reg 1 %" _TRIGGER $end
$var reg 1 &" _WINDOW $end
$var reg 1 '" _GAP $end
$upscope $end
$enddefinitions $end
#0
$dumpvars
b1110100 "
0*
b1101010111 +
b10010111 6
0>
1?
1@
b11101010110 A
1L
b1 M
b0 O
0R
0S
0T
0U
b11 V
1^
b0 _
b111100 a
0i
0j
1k
b11111111110 l
b11 w
1z
b111110 {
0%"
1&"
0'"
$end
#1
b1110101 "
#2
b1110110 "
#3
b1110111 "
#4
b1111000 "
#5
b1111001 "
#6
b1111010 "
#7
b1111011 "
#8
b1111100 "
#9
b1111101 "
#10
b1111110 "
#11
b1111111 "
#12
b10000000 "
#13
b10000001 "
#14
b10000010 "
#15
b10000011 "
#16
b10000100 "
#17
b10000101 "
#18
b10000110 "
#19
b10000111 "
#20
b10001000 "
#21
b10001001 "
#22
b10001010 "
#23
b10001011 "
#24
b10001100 "
#25
b10001101 "
#26
b10001110 "
#27
b10001111 "
#28
b10010000 "
#29
b10010001 "
#30
b10010010 "
#31
b10010011 "
#32
b10010100 "
#33
b10010101 "
#34
b10010110 "
#35
b10010111 "
#36
b10011000 "
#37
b10011001 "
#38
b10011010 "
#39
b10011011 "
#40
b10011100 "
#41
b10011101 "
#42
b10011110 "
#43
b10011111 "
#44
b10100000 "
#45
b10100001 "
#46
b10100010 "
#47
b10100011 "
#48
b10100100 "
#49
b10100101 "
#50
b10100110 "
#51
b10100111 "
#52
b10101000 "
#53
b10101001 "
#54
b10101010 "
#55
b10101011 "
#56
b10101100 "
#57
b10101101 "
#58
b10101110 "
#59
b10101111 "
#60
b10110000 "
#61
b10110001 "
#62
b10110010 "
#63
b10110011 "
#64
b10110100 "
#65
b10110101 "
#66
b10110110 "
#67
b10110111 "
#68
b10111000 "
#69
b10111001 "
#70
b10111010 "
#71
b10111011 "
#72
b10111100 "
#73
b10111101 "
#74
b10111110 "
#75
b10111111 "
#76
b11000000 "
#77
b11000001 "
#78
b11000010 "
#79
b11000011 "
#80
b11000100 "
#81
b11000101 "
#82
b11000110 "
#83
b11000111 "
#84
b11001000 "
#85
b11001001 "
#86
b11001010 "
#87
b11001011 "
#88
b11001100 "
#89
b11001101 "
#90
b11001110 "
#91
b11001111 "
#92
b11010000 "
#93
b11010001 "
#94
b11010010 "
#95
b11010011 "
#96
b11010100 "
#97
b11010101 "
#98
b11010110 "
#99
b11010111 "
#100
b11011000 "
#101
b11011001 "
#102
b11011010 "
#103
b11011011 "
#104
b11011100 "
#105
b11011101 "
#106
b11011110 "
#107
b11011111 "
#108
b11100000 "
#109
b11100001 "
#110
b11100010 "
#111
b11100011 "
#112
b11100100 "
#113
b11100101 "
#114
b11100110 "
#115
b11100111 "
#116
b11101000 "
#117
b11101001 "
#118
b11101010 "
#119
b11101011 "
#120
b11101100 "
#121
b11101101 "
#122
b11101110 "
#123
b11101111 "
#124
b11110000 "
#125
b11110001 "
#126
b11110010 "
#127
b11110011 "
#128
b11110100 "
#129
b11110101 "
#130
b11110110 "
#131
b11110111 "
#132
b11111000 "
#133
b11111001 "
#134
b11111010 "
#135
b11111011 "
#136
b11111100 "
#137
b11111101 "
#138
b11111110 "
#139
b11111111 "
#140
b0 "
#141
b1 "
#142
b10 "
#143
b11 "
#144
b100 "
#145
b101 "
#146
b110 "
#147
b111 "
#148
b1000 "
#149
b1001 "
#150
b1010 "
#151
b1011 "
#152
b1100 "
#153
b1101 "
#154
b1110 "
#155
b1111 "
#156
b10000 "
#157
b10001 "
#158
b10010 "
#159
b10011 "
#160
b10100 "
#161
b10101 "
#162
b10110 "
#163
b10111 "
#164
b11000 "
#165
b11001 "
#166
b11010 "
#167
b11011 "
#168
b11100 "
#169
b11101 "
#170
b11110 "
#171
b11111 "
#172
b100000 "
#173
b100001 "
#174
b100010 "
#175
b100011 "
#176
b100100 "
#177
b100101 "
#178
b100110 "
#179
b100111 "
#180
b101000 "
#181
b101001 "
#182
b101010 "
#183
b101011 "
#184
b101100 "
#185
b101101 "
#186
b101110 "
#187
b101111 "
#188
b110000 "
#189
b110001 "
#190
b110010 "
#191
b110011 "
#192
b110100 "
#193
b110101 "
#194
b110110 "
#195
b110111 "
#196
b111000 "
#197
b111001 "
#198
b111010 "
#199
b111011 "
#200
b111100 "
#201
b111101 "
#202
b111110 "
#203
b111111 "
#204
b1000000 "
#205
b1000001 "
#206
b1000010 "
#207
b1000011 "
#208
b1000100 "
#209
b1000101 "
#210
b1000110 "
#211
b1000111 "
#212
b1001000 "
#213
b1001001 "
#214
b1001010 "
#215
b1001011 "
#216
b1001100 "
#217
b1001101 "
#218
b1001110 "
#219
b1001111 "
#220
b1010000 "
#221
b1010001 "
#222
b1010010 "
#223
b1010011 "
#224
b1010100 "
#225
b1010101 "
#226
b1010110 "
#227
b1010111 "
#228
b1011000 "
#229
b1011001 "
#230
b1011010 "
#231
b1011011 "
#232
b1011100 "
#233
b1011101 "
#234
b1011110 "
#235
b1011111 "
#236
b1100000 "
#237
b1100001 "
#238
b1100010 "
#239
b1100011 "
#240
b1100100 "
#241
b1100101 "
#242
b1100110 "
#243
b1100111 "
#244
b1101000 "
#245
b1101001 "
#246
b1101010 "
#247
b1101011 "
#248
b1101100 "
#249
b1101101 "
#250
b1101110 "
#251
b1101111 "
#252
b1110000 "
#253
b1110001 "
#254
b1110010 "
#255
b1110011 "
#256
b1110100 "
#257
b1110101 "
#258
b1110110 "
#259
b1110111 "
#260
b1111000 "
#261
b1111001 "
#262
b1111010 "
#263
b1111011 "
#264
b1111100 "
#265
b1111101 "
#266
b1111110 "
#267
b1111111 "
#268
b10000000 "
#269
b10000001 "
#270
b10000010 "
#271
b10000011 "
#272
b10000100 "
#273
b10000101 "
#274
b10000110 "
#275
b10000111 "
#276
b10001000 "
#277
b10001001 "
#278
b10001010 "
#279
b10001011 "
#280
b10001100 "
#281
b10001101 "
#282
b10001110 "
#283
b10001111 "
#284
b10010000 "
#285
b10010001 "
#286
b10010010 "
#287
b10010011 "
#288
b10010100 "
#289
b10010101 "
#290
b10010110 "
#291
b10010111 "
#292
b10011000 "
#293
b10011001 "
#294
b10011010 "
#295
b10011011 "
#296
b10011100 "
#297
b10011101 "
#298
b10011110 "
#299
b10011111 "
#300
b10100000 "
#301
b10100001 "
#302
b10100010 "
#303
b10100011 "
#304
b10100100 "
#305
b10100101 "
#306
b10100110 "
#307
b10100111 "
#308
b10101000 "
#309
b10101001 "
#310
b10101010 "
#311
b10101011 "
#312
b10101100 "
#313
b10101101 "
#314
b10101110 "
#315
b10101111 "
#316
b10110000 "
#317
b10110001 "
#318
b10110010 "
#319
b10110011 "
#320
b10110100 "
#321
b10110101 "
#322
b10110110 "
#323
b10110111 "
#324
b10111000 "
#325
b10111001 "
#326
b10111010 "
#327
b10111011 "
#328
b10111100 "
#329
b10111101 "
#330
b10111110 "
#331
b10111111 "
#332
b11000000 "
#333
b11000001 "
#334
b11000010 "
#335
b11000011 "
#336
b11000100 "
#337
b11000101 "
#338
b11000110 "
#339
b11000111 "
#340
b11001000 "
#341
b11001001 "
#342
b11001010 "
#343
b11001011 "
#344
b11001100 "
#345
b11001101 "
#346
b11001110 "
#347
b11001111 "
#348
b11010000 "
#349
b11010001 "
#350
b11010010 "
#351
b11010011 "
#352
b11010100 "
#353
b11010101 "
#354
b11010110 "
#355
b11010111 "
#356
b11011000 "
#357
b11011001 "
#358
b11011010 "
#359
b11011011 "
#360
b11011100 "
#361
b11011101 "
#362
b11011110 "
#363
b11011111 "
#364
b11100000 "
#365
b11100001 "
#366
b11100010 "
#367
b11100011 "
#368
b11100100 "
#369
b11100101 "
#370
b11100110 "
#371
b11100111 "
#372
b11101000 "
#373
b11101001 "
#374
b11101010 "
#375
b11101011 "
#376
b11101100 "
#377
b11101101 "
#378
b11101110 "
#379
b11101111 "
#380
b11110000 "
#381
b11110001 "
#382
b11110010 "
#383
b11110011 "
#384
b11110100 "
#385
b11110101 "
#386
b11110110 "
#387
b11110111 "
#388
b11111000 "
#389
b11111001 "
#390
b11111010 "
#391
b11111011 "
#392
b11111100 "
#393
b11111101 "
#394
b11111110 "
#395
b11111111 "
#396
b0 "
#397
b1 "
#398
b10 "
#399
b11 "
#400
b100 "
#401
b101 "
#402
b110 "
#403
b111 "
#404
b1000 "
#405
b1001 "
#406
b1010 "
#407
b1011 "
#408
b1100 "
#409
b1101 "
#410
b1110 "
#411
b1111 "
#412
b10000 "
#413
b10001 "
#414
b10010 "
#415
b10011 "
#416
b10100 "
#417
b10101 "
#418
b10110 "
#419
b10111 "
#420
b11000 "
#421
b11001 "
#422
b11010 "
#423
b11011 "
#424
b11100 "
#425
b11101 "
#426
b11110 "
#427
b11111 "
#428
b100000 "
#429
b100001 "
#430
b100010 "
#431
b100011 "
#432
b100100 "
#433
b100101 "
#434
b100110 "
#435
b100111 "
#436
b101000 "
#437
b101001 "
#438
b101010 "
#439
b101011 "
#440
b101100 "
#441
b101101 "
#442
b101110 "
#443
b101111 "
#444
b110000 "
#445
b110001 "
#446
b110010 "
#447
b110011 "
#448
b110100 "
#449
b110101 "
#450
b110110 "
#451
b110111 "
#452
b111000 "
#453
b111001 "
#454
b111010 "
#455
b111011 "
#456
b111100 "
#457
b111101 "
#458
b111110 "
#459
b111111 "
#460
b1000000 "
#461
b1000001 "
#462
b1000010 "
#463
b1000011 "
#464
b1000100 "
#465
b1000101 "
#466
b1000110 "
#467
b1000111 "
#468
b1001000 "
#469
b1001001 "
#470
b1001010 "
#471
b1001011 "
#472
b1001100 "
#473
b1001101 "
#474
b1001110 "
#475
b1001111 "
#476
b1010000 "
#477
b1010001 "
#478
b1010010 "
#479
b1010011 "
#480
b1010100 "
#481
b1010101 "
#482
b1010110 "
#483
b1010111 "
#484
b1011000 "
#485
b1011001 "
#486
b1011010 "
#487
b1011011 "
#488
b1011100 "
#489
b1011101 "
#490
b1011110 "
#491
b1011111 "
#492
b1100000 "
#493
b1100001 "
#494
b1100010 "
#495
b1100011 "
#496
b1100100 "
#497
b1100101 "
#498
b1100110 "
#499
b1100111 "
#500
b1101000 "
#501
b1101001 "
#502
b1101010 "
#503
b1101011 "
#504
b1101100 "
#505
b1101101 "
#506
b1101110 "
#507
b1101111 "
#508
b1110000 "
#509
b1110001 "
#510
b1110010 "
#511
b1110011 "
#512
b1110100 "
#513
b1110101 "
#514
b1110110 "
#515
b1110111 "
#516
b1111000 "
#517
b1111001 "
#518
b1111010 "
#519
b1111011 "
#520
b1111100 "
#521
b1111101 "
#522
b1111110 "
#523
b1111111 "
#524
b10000000 "
#525
b10000001 "
#526
b10000010 "
#527
b10000011 "
#528
b10000100 "
#529
b10000101 "
#530
b10000110 "
#531
b10000111 "
#532
b10001000 "
#533
b10001001 "
#534
b10001010 "
#535
b10001011 "
#536
b10001100 "
#537
b10001101 "
#538
b10001110 "
#539
b10001111 "
#540
b10010000 "
#541
b10010001 "
#542
b10010010 "
#543
b10010011 "
#544
b10010100 "
#545
b10010101 "
#546
b10010110 "
#547
b10010111 "
#548
b10011000 "
#549
b10011001 "
#550
b10011010 "
#551
b10011011 "
#552
b10011100 "
#553
b10011101 "
#554
b10011110 "
#555
b10011111 "
#556
b10100000 "
#557
b10100001 "
#558
b10100010 "
#559
b10100011 "
#560
b10100100 "
#561
b10100101 "
#562
b10100110 "
#563
b10100111 "
#564
b10101000 "
#565
b10101001 "
#566
b10101010 "
#567
b10101011 "
#568
b10101100 "
#569
b10101101 "
#570
b10101110 "
#571
b10101111 "
#572
b10110000 "
#573
b10110001 "
#574
b10110010 "
#575
b10110011 "
#576
b10110100 "
#577
b10110101 "
#578
b10110110 "
#579
b10110111 "
#580
b10111000 "
#581
b10111001 "
#582
b10111010 "
#583
b10111011 "
#584
b10111100 "
#585
b10111101 "
#586
b10111110 "
#587
b10111111 "
#588
b11000000 "
#589
b11000001 "
#590
b11000010 "
#591
b11000011 "
#592
b11000100 "
#593
b11000101 "
#594
b11000110 "
#595
b11000111 "
#596
b11001000 "
#597
b11001001 "
#598
b11001010 "
#599
b11001011 "
#600
b11001100 "
#601
b11001101 "
#602
b11001110 "
#603
b11001111 "
#604
b11010000 "
#605
b11010001 "
#606
b11010010 "
#607
b11010011 "
#608
b11010100 "
#609
b11010101 "
#610
b11010110 "
#611
b11010111 "
#612
b11011000 "
#613
b11011001 "
#614
b11011010 "
#615
b11011011 "
#616
b11011100 "
#617
b11011101 "
#618
b11011110 "
#619
b11011111 "
#620
b11100000 "
#621
b11100001 "
#622
b11100010 "
#623
b11100011 "
#624
b11100100 "
#625
b11100101 "
#626
b11100110 "
#627
b11100111 "
#628
b11101000 "
#629
b11101001 "
#630
b11101010 "
#631
b11101011 "
#632
b11101100 "
#633
b11101101 "
#634
b11101110 "
#635
b11101111 "
#636
b11110000 "
#637
b11110001 "
#638
b11110010 "
#639
b11110011 "
#640
b11110100 "
#641
b11110101 "
#642
b11110110 "
#643
b11110111 "
#644
b11111000 "
#645
b11111001 "
#646
b11111010 "
#647
b11111011 "
#648
b11111100 "
#649
b11111101 "
#650
b11111110 "
#651
b11111111 "
#652
b0 "
#653
b1 "
#654
b10 "
#655
b11 "
#656
b100 "
#657
b101 "
#658
b110 "
#659
b111 "
#660
b1000 "
#661
b1001 "
#662
b1010 "
#663
b1011 "
#664
b1100 "
#665
b1101 "
#666
b1110 "
#667
b1111 "
#668
b10000 "
#669
b10001 "
#670
b10010 "
#671
b10011 "
#672
b10100 "
#673
b10101 "
#674
b10110 "
#675
b10111 "
#676
b11000 "
#677
b11001 "
#678
b11010 "
#679
b11011 "
#680
b11100 "
#681
b11101 "
#682
b11110 "
#683
b11111 "
#684
b100000 "
#685
b100001 "
#686
b100010 "
#687
b100011 "
#688
b100100 "
#689
b100101 "
#690
b100110 "
#691
b100111 "
#692
b101000 "
#693
b101001 "
#694
b101010 "
#695
b101011 "
#696
b101100 "
#697
b101101 "
#698
b101110 "
#699
b101111 "
#700
b110000 "
#701
b110001 "
#702
b110010 "
#703
b110011 "
#704
b110100 "
#705
b110101 "
#706
b110110 "
#707
b110111 "
#708
b111000 "
#709
b111001 "
#710
b111010 "
#711
b111011 "
#712
b111100 "
#713
b111101 "
#714
b111110 "
#715
b111111 "
#716
b1000000 "
#717
b1000001 "
#718
b1000010 "
#719
b1000011 "
#720
b1000100 "
#721
b1000101 "
#722
b1000110 "
#723
b1000111 "
#724
b1001000 "
#725
b1001001 "
#726
b1001010 "
#727
b1001011 "
#728
b1001100 "
#729
b1001101 "
#730
b1001110 "
#731
b1001111 "
#732
b1010000 "
#733
b1010001 "
#734
b1010010 "
#735
b1010011 "
#736
b1010100 "
#737
b1010101 "
#738
b1010110 "
#739
b1010111 "
#740
b1011000 "
#741
b1011001 "
0z
#742
b1011010 "
#743
b1011011 "
#744
b1011100 "
#745
b1011101 "
#746
b1011110 "
#747
b1011111 "
#748
b1100000 "
#749
b1100001 "
#750
b1100010 "
#751
b1100011 "
#752
b1100100 "
#753
b1100101 "
#754
b1100110 "
#755
b1100111 "
#756
b1101000 "
#757
b1101001 "
#758
b1101010 "
#759
b1101011 "
#760
b1101100 "
#761
b1101101 "
#762
b1101110 "
#763
b1101111 "
#764
b1110000 "
#765
b1110001 "
#766
b1110010 "
#767
b1110011 "
#768
b1110100 "
#769
b1110101 "
#770
b1110110 "
#771
b1110111 "
#772
b1111000 "
#773
b1111001 "
#774
b1111010 "
#775
b1111011 "
#776
b1111100 "
#777
b1111101 "
#778
b1111110 "
#779
b1111111 "
#780
b10000000 "
#781
b10000001 "
#782
b10000010 "
#783
b10000011 "
#784
b10000100 "
#785
b10000101 "
#786
b10000110 "
#787
b10000111 "
#788
b10001000 "
#789
b10001001 "
#790
b10001010 "
#791
b10001011 "
#792
b10001100 "
#793
b10001101 "
#794
b10001110 "
#795
b10001111 "
#796
b10010000 "
#797
b10010001 "
#798
b10010010 "
#799
b10010011 "
#800
b10010100 "
#801
b10010101 "
#802
b10010110 "
#803
b10010111 "
#804
b10011000 "
#805
b10011001 "
#806
b10011010 "
#807
b10011011 "
#808
b10011100 "
#809
b10011101 "
#810
b10011110 "
#811
b10011111 "
#812
b10100000 "
#813
b10100001 "
#814
b10100010 "
#815
b10100011 "
#816
b10100100 "
#817
b10100101 "
#818
b10100110 "
#819
b10100111 "
#820
b10101000 "
#821
b10101001 "
#822
b10101010 "
#823
b10101011 "
#824
b10101100 "
#825
b10101101 "
#826
b10101110 "
#827
b10101111 "
#828
b10110000 "
#829
b10110001 "
#830
b10110010 "
#831
b10110011 "
#832
b10110100 "
#833
b10110101 "
#834
b10110110 "
#835
b10110111 "
#836
b10111000 "
#837
b10111001 "
#838
b10111010 "
#839
b10111011 "
#840
b10111100 "
#841
b10111101 "
#842
b10111110 "
#843
b10111111 "
#844
b11000000 "
#845
b11000001 "
#846
b11000010 "
#847
b11000011 "
#848
b11000100 "
#849
b11000101 "
#850
b11000110 "
#851
b11000111 "
#852
b11001000 "
#853
b11001001 "
#854
b11001010 "
#855
b11001011 "
#856
b11001100 "
#857
b11001101 "
#858
b11001110 "
#859
b11001111 "
#860
b11010000 "
#861
b11010001 "
#862
b11010010 "
#863
b11010011 "
#864
b11010100 "
#865
b11010101 "
#866
b11010110 "
#867
b11010111 "
#868
b11011000 "
#869
b11011001 "
#870
b11011010 "
#871
b11011011 "
#872
b11011100 "
#873
b11011101 "
#874
b11011110 "
#875
b11011111 "
#876
b11100000 "
#877
b11100001 "
#878
b11100010 "
#879
b11100011 "
#880
b11100100 "
#881
b11100101 "
#882
b11100110 "
#883
b11100111 "
#884
b11101000 "
#885
b11101001 "
#886
b11101010 "
#887
b11101011 "
#888
b11101100 "
#889
b11101101 "
#890
b11101110 "
#891
b11101111 "
#892
b11110000 "
#893
b11110001 "
#894
b11110010 "
#895
b11110011 "
#896
b11110100 "
#897
b11110101 "
#898
b11110110 "
#899
b11110111 "
#900
b11111000 "
#901
b11111001 "
#902
b11111010 "
#903
b11111011 "
#904
b11111100 "
#905
b11111101 "
#906
b11111110 "
#907
b11111111 "
#908
b0 "
#909
b1 "
#910
b10 "
#911
b11 "
#912
b100 "
#913
b101 "
#914
b110 "
#915
b111 "
#916
b1000 "
#917
b1001 "
#918
b1010 "
#919
b1011 "
#920
b1100 "
#921
b1101 "
#922
b1110 "
#923
b1111 "
#924
b10000 "
#925
b10001 "
#926
b10010 "
#927
b10011 "
#928
b10100 "
#929
b10101 "
#930
b10110 "
#931
b10111 "
#932
b11000 "
#933
b11001 "
#934
b11010 "
#935
b11011 "
#936
b11100 "
#937
b11101 "
#938
b11110 "
#939
b11111 "
#940
b100000 "
#941
b100001 "
#942
b100010 "
#943
b100011 "
#944
b100100 "
#945
b100101 "
#946
b100110 "
#947
b100111 "
#948
b101000 "
#949
b101001 "
#950
b101010 "
#951
b101011 "
#952
b101100 "
#953
b101101 "
#954
b101110 "
#955
b101111 "
#956
b110000 "
#957
b110001 "
#958
b110010 "
#959
b110011 "
#960
b110100 "
#961
b110101 "
#962
b110110 "
#963
b110111 "
#964
b111000 "
#965
b111001 "
#966
b111010 "
#967
b111011 "
#968
b111100 "
#969
b111101 "
#970
b111110 "
#971
b111111 "
#972
b1000000 "
#973
b1000001 "
#974
b1000010 "
#975
b1000011 "
#976
b1000100 "
#977
b1000101 "
#978
b1000110 "
#979
b1000111 "
#980
b1001000 "
#981
b1001001 "
#982
b1001010 "
#983
b1001011 "
#984
b1001100 "
#985
b1001101 "
#986
b1001110 "
#987
b1001111 "
#988
b1010000 "
#989
b1010001 "
#990
b1010010 "
#991
b1010011 "
#992
b1010100 "
#993
b1010101 "
#994
b1010110 "
#995
b1010111 "
#996
b1011000 "
#997
b1011001 "
#998
b1011010 "
#999
b1011011 "
#1000
b1011100 "
#1001
b1011101 "
#1002
b1011110 "
#1003
b1011111 "
#1004
b1100000 "
#1005
b1100001 "
#1006
b1100010 "
#1007
b1100011 "
#1008
b1100100 "
#1009
b1100101 "
#1010
b1100110 "
#1011
b1100111 "
#1012
b1101000 "
#1013
b1101001 "
#1014
b1101010 "
#1015
b1101011 "
#1016
b1101100 "
#1017
b1101101 "
#1018
b1101110 "
#1019
b1101111 "
#1020
b1110000 "
#1021
b1110001 "
#1022
b1110010 "
#1023
b1110011 "
#1024
b1110100 "
#1025
b1110101 "
#1026
b1110110 "
#1027
b1110111 "
#1028
b1111000 "
#1029
b1111001 "
#1030
b1111010 "
#1031
b1111011 "
#1032
b1111100 "
#1033
b1111101 "
#1034
b1111110 "
#1035
b1111111 "
#1036
b10000000 "
#1037
b10000001 "
#1038
b10000010 "
#1039
b10000011 "
#1040
b10000100 "
#1041
b10000101 "
#1042
b10000110 "
#1043
b10000111 "
#1044
b10001000 "
#1045
b10001001 "
#1046
b10001010 "
#1047
b10001011 "
#1048
b10001100 "
#1049
b10001101 "
#1050
b10001110 "
#1051
b10001111 "
#1052
b10010000 "
#1053
b10010001 "
#1054
b10010010 "
#1055
b10010011 "
#1056
b10010100 "
#1057
b10010101 "
#1058
b10010110 "
#1059
b10010111 "
#1060
b10011000 "
#1061
b10011001 "
#1062
b10011010 "
#1063
b10011011 "
#1064
b10011100 "
#1065
b10011101 "
#1066
b10011110 "
#1067
b10011111 "
#1068
b10100000 "
#1069
b10100001 "
#1070
b10100010 "
#1071
b10100011 "
#1072
b10100100 "
#1073
b10100101 "
#1074
b10100110 "
#1075
b10100111 "
#1076
b10101000 "
#1077
b10101001 "
#1078
b10101010 "
#1079
b10101011 "
#1080
b10101100 "
#1081
b10101101 "
#1082
b10101110 "
#1083
b10101111 "
#1084
b10110000 "
#1085
b10110001 "
#1086
b10110010 "
#1087
b10110011 "
#1088
b10110100 "
#1089
b10110101 "
#1090
b10110110 "
#1091
b10110111 "
#1092
b10111000 "
#1093
b10111001 "
#1094
b10111010 "
#1095
b10111011 "
#1096
b10111100 "
#1097
b10111101 "
#1098
b10111110 "
#1099
b10111111 "
#1100
b11000000 "
#1101
b11000001 "
#1102
b11000010 "
#1103
b11000011 "
#1104
b11000100 "
#1105
b11000101 "
#1106
b11000110 "
#1107
b11000111 "
#1108
b11001000 "
#1109
b11001001 "
#1110
b11001010 "
#1111
b11001011 "
#1112
b11001100 "
#1113
b11001101 "
#1114
b11001110 "
#1115
b11001111 "
#1116
b11010000 "
#1117
b11010001 "
#1118
b11010010 "
#1119
b11010011 "
#1120
b11010100 "
#1121
b11010101 "
#1122
b11010110 "
#1123
b11010111 "
#1124
b11011000 "
#1125
b11011001 "
#1126
b11011010 "
#1127
b11011011 "
#1128
b11011100 "
#1129
b11011101 "
#1130
b11011110 "
#1131
b11011111 "
#1132
b11100000 "
#1133
b11100001 "
#1134
b11100010 "
#1135
b11100011 "
#1136
b11100100 "
#1137
b11100101 "
#1138
b11100110 "
#1139
b11100111 "
#1140
b11101000 "
#1141
b11101001 "
#1142
b11101010 "
#1143
b11101011 "
#1144
b11101100 "
#1145
b11101101 "
#1146
b11101110 "
#1147
b11101111 "
#1148
b11110000 "
#1149
b11110001 "
#1150
b11110010 "
#1151
b11110011 "
#1152
b11110100 "
#1153
b11110101 "
#1154
b11110110 "
#1155
b11110111 "
#1156
b11111000 "
#1157
b11111001 "
#1158
b11111010 "
#1159
b11111011 "
#1160
b11111100 "
#1161
b11111101 "
#1162
b11111110 "
#1163
b11111111 "
#1164
b0 "
#1165
b1 "
#1166
b10 "
#1167
b11 "
#1168
b100 "
#1169
b101 "
#1170
b110 "
#1171
b111 "
#1172
b1000 "
#1173
b1001 "
#1174
b1010 "
#1175
b1011 "
#1176
b1100 "
#1177
b1101 "
#1178
b1110 "
#1179
b1111 "
#1180
b10000 "
#1181
b10001 "
#1182
b10010 "
#1183
b10011 "
#1184
b10100 "
#1185
b10101 "
#1186
b10110 "
#1187
b10111 "
#1188
b11000 "
#1189
b11001 "
#1190
b11010 "
#1191
b11011 "
#1192
b11100 "
#1193
b11101 "
#1194
b11110 "
#1195
b11111 "
#1196
b100000 "
#1197
b100001 "
#1198
b100010 "
#1199
b100011 "
#1200
b100100 "
#1201
b100101 "
#1202
b100110 "
#1203
b100111 "
#1204
b101000 "
#1205
b101001 "
#1206
b101010 "
#1207
b101011 "
#1208
b101100 "
#1209
b101101 "
#1210
b101110 "
#1211
b101111 "
#1212
b110000 "
#1213
b110001 "
#1214
b110010 "
#1215
b110011 "
#1216
b110100 "
#1217
b110101 "
#1218
b110110 "
#1219
b110111 "
#1220
b111000 "
#1221
b111001 "
#1222
b111010 "
#1223
b111011 "
#1224
b111100 "
#1225
b111101 "
#1226
b111110 "
#1227
b111111 "
#1228
b1000000 "
#1229
b1000001 "
#1230
b1000010 "
#1231
b1000011 "
#1232
b1000100 "
#1233
b1000101 "
#1234
b1000110 "
#1235
b1000111 "
#1236
b1001000 "
#1237
b1001001 "
#1238
b1001010 "
#1239
b1001011 "
#1240
b1001100 "
#1241
b1001101 "
#1242
b1001110 "
#1243
b1001111 "
#1244
b1010000 "
#1245
b1010001 "
#1246
b1010010 "
#1247
b1010011 "
#1248
b1010100 "
#1249
b1010101 "
#1250
b1010110 "
#1251
b1010111 "
#1252
b1011000 "
#1253
b1011001 "
#1254
b1011010 "
#1255
b1011011 "
#1256
b1011100 "
#1257
b1011101 "
#1258
b1011110 "
#1259
b1011111 "
#1260
b1100000 "
#1261
b1100001 "
#1262
b1100010 "
#1263
b1100011 "
#1264
b1100100 "
#1265
b1100101 "
#1266
b1100110 "
#1267
b1100111 "
#1268
b1101000 "
#1269
b1101001 "
#1270
b1101010 "
#1271
b1101011 "
#1272
b1101100 "
#1273
b1101101 "
#1274
b1101110 "
#1275
b1101111 "
#1276
b1110000 "
#1277
b1110001 "
#1278
b1110010 "
#1279
b1110011 "
#1280
b1110100 "
#1281
b1110101 "
#1282
b1110110 "
#1283
b1110111 "
#1284
b1111000 "
#1285
b1111001 "
#1286
b1111010 "
#1287
b1111011 "
#1288
b1111100 "
#1289
b1111101 "
#1290
b1111110 "
#1291
b1111111 "
#1292
b10000000 "
#1293
b10000001 "
#1294
b10000010 "
#1295
b10000011 "
#1296
b10000100 "
#1297
b10000101 "
#1298
b10000110 "
#1299
b10000111 "
#1300
b10001000 "
#1301
b10001001 "
#1302
b10001010 "
#1303
b10001011 "
#1304
b10001100 "
#1305
b10001101 "
#1306
b10001110 "
#1307
b10001111 "
#1308
b10010000 "
#1309
b10010001 "
#1310
b10010010 "
#1311
b10010011 "
#1312
b10010100 "
#1313
b10010101 "
#1314
b10010110 "
#1315
b10010111 "
#1316
b10011000 "
#1317
b10011001 "
#1318
b10011010 "
#1319
b10011011 "
#1320
b10011100 "
#1321
b10011101 "
#1322
b10011110 "
#1323
b10011111 "
#1324
b10100000 "
#1325
b10100001 "
#1326
b10100010 "
#1327
b10100011 "
#1328
b10100100 "
#1329
b10100101 "
#1330
b10100110 "
#1331
b10100111 "
#1332
b10101000 "
#1333
b10101001 "
#1334
b10101010 "
#1335
b10101011 "
#1336
b10101100 "
#1337
b10101101 "
#1338
b10101110 "
#1339
b10101111 "
#1340
b10110000 "
#1341
b10110001 "
#1342
b10110010 "
#1343
b10110011 "
#1344
b10110100 "
#1345
b10110101 "
#1346
b10110110 "
#1347
b10110111 "
#1348
b10111000 "
#1349
b10111001 "
#1350
b10111010 "
#1351
b10111011 "
#1352
b10111100 "
#1353
b10111101 "
#1354
b10111110 "
#1355
b10111111 "
#1356
b11000000 "
#1357
b11000001 "
#1358
b11000010 "
#1359
b11000011 "
#1360
b11000100 "
#1361
b11000101 "
#1362
b11000110 "
#1363
b11000111 "
#1364
b11001000 "
#1365
b11001001 "
#1366
b11001010 "
#1367
b11001011 "
#1368
b11001100 "
#1369
b11001101 "
#1370
b11001110 "
#1371
b11001111 "
#1372
b11010000 "
#1373
b11010001 "
#1374
b11010010 "
#1375
b11010011 "
#1376
b11010100 "
#1377
b11010101 "
#1378
b11010110 "
#1379
b11010111 "
#1380
b11011000 "
#1381
b11011001 "
#1382
b11011010 "
#1383
b11011011 "
#1384
b11011100 "
#1385
b11011101 "
#1386
b11011110 "
#1387
b11011111 "
#1388
b11100000 "
#1389
b11100001 "
#1390
b11100010 "
#1391
b11100011 "
#1392
b11100100 "
#1393
b11100101 "
#1394
b11100110 "
#1395
b11100111 "
#1396
b11101000 "
#1397
b11101001 "
#1398
b11101010 "
#1399
b11101011 "
#1400
b11101100 "
#1401
b11101101 "
#1402
b11101110 "
#1403
b11101111 "
#1404
b11110000 "
#1405
b11110001 "
#1406
b11110010 "
#1407
b11110011 "
#1408
b11110100 "
#1409
b11110101 "
#1410
b11110110 "
#1411
b11110111 "
